﻿STATE_NORTH_AMERICA = {
    id = 177
    subsistence_building = "building_subsistence_farms"
    provinces = { "x44578C" "x700080" "x0CF7A4" "x131940" "x13B0C7" "x18D465" "x1BF244" "x216122" "x2BEBAE" "x371B1B" "x39D7A2" "x403095" "x4FA3C4" "x68C793" "x71BEC1" "x7EF4B8" "x86BC13" "x9A7554" "x9E96B6" "xA4EE3C" "xAC4818" "xBF79F5" "xC07080" "xC0F080" "xC1273E" "xC51912" "xC62139" "xD658E7" "xEE0FAA" "xEFB99C" "x01D042" "x05187E" "x195B49" "x1BAD55" "x235E9F" "x260926" "x2CA754" "x300080" "x308000" "x377E55" "x38C881" "x3CB274" "x42D496" "x4B0747" "x70C080" "x73A16C" "x75F2A6" "x8C059D" "x9484F3" "x99CB10" "x9CC56A" "xA6BED5" "xA7B5FE" "xB00080" "xB08000" "xB343E6" "xBA53D0" "xD534B1" "xDB0967" "xE217B5" "xE7BE2D" "xEC2EAA" "xEDC7DA" "xFC18F1" "xFCF1BE" "x056BA1" "x08C98C" "x29E263" "x304080" "x355247" "x40B0C0" "x4BD8B5" "x50F06C" "x764809" "x76D2B5" "x79AC2A" "x7C5B12" "x806B93" "x8D147E" "x8E2B78" "x90316A" "x95CEBC" "x9D6816" "xAA8809" "xB0C000" "xB5B538" "xBF8CE2" "xC070C0" "xC0B0C0" "xC8ABE0" "xF00080" "xF13564" "xF47C46" "x0017A3" "x01014E" "x014D28" "x021948" "x02B436" "x02D229" "x03C148" "x0481C2" "x050A36" "x051CA7" "x052092" "x055B65" "x05AA2F" "x05DAFE" "x062126" "x064764" "x07688A" "x079E6F" "x07BEB5" "x07C641" "x07CE0C" "x08D187" "x0938B7" "x093B34" "x0948A5" "x0975BC" "x098E2F" "x09D5DB" "x0A1FF9" "x0A94C6" "x0AAB61" "x0AEDE7" "x0AF925" "x0B215E" "x0B8E9E" "x0BDD2C" "x0C1683" "x0C2257" "x0C2EAC" "x0C6194" "x0C8377" "x0C947B" "x0CD360" "x0CFB30" "x0D0BF4" "x0DD63D" "x0EFBA2" "x0EFCC4" "x0F51A3" "x0FA728" "x1084B8" "x109112" "x10FB9E" "x118711" "x11966B" "x125F4D" "x12848D" "x12A4C3" "x12B6BA" "x12DF58" "x134775" "x135EA4" "x136CAC" "x13A14F" "x145948" "x147817" "x14BE37" "x150B2F" "x15B407" "x15E299" "x1608A2" "x164737" "x16BF3F" "x1711CF" "x17211C" "x175438" "x176098" "x177B79" "x1780AF" "x18375A" "x187903" "x191D87" "x192984" "x193407" "x196F16" "x19A941" "x19E72F" "x1A3FD2" "x1AADF8" "x1ACBF6" "x1AF72A" "x1B00F0" "x1B7C13" "x1B8BE4" "x1B967E" "x1BB4AE" "x1C1D5C" "x1C913E" "x1D760A" "x1DA1F0" "x1DBFB3" "x1DCB1D" "x1E26E1" "x1E6BCF" "x1EA9EC" "x1F1596" "x1F2AB3" "x1F2BC9" "x1F3AE9" "x1F8C10" "x1F91CD" "x1F9404" "x1FC5DB" "x1FD8CA" "x1FF2FE" "x1FF6F0" "x20427C" "x20542B" "x206858" "x2094F9" "x209FA6" "x20C17A" "x20CCD9" "x2118D9" "x2137C4" "x214628" "x21F1E2" "x220552" "x22103F" "x221290" "x2246A1" "x2251C7" "x226493" "x22FF97" "x2320E4" "x234E0D" "x239E2F" "x23D48A" "x23DD75" "x242DE2" "x24370A" "x2457C5" "x24BE2A" "x253000" "x253F33" "x253FF9" "x257BAE" "x25A09F" "x264B7A" "x26FFD5" "x27049B" "x278079" "x2833EA" "x283D3D" "x288902" "x28B754" "x28EC03" "x28EC12" "x2919A0" "x29F3A6" "x2A1C97" "x2A245E" "x2A88BE" "x2A9054" "x2AD37E" "x2B301E" "x2B83B7" "x2BA484" "x2BABD1" "x2BB077" "x2BBEDD" "x2BE1B4" "x2BEA43" "x2C09FA" "x2C4A4D" "x2C67FE" "x2C6A78" "x2CEF6D" "x2CF213" "x2D9E6C" "x2E34E5" "x2E8502" "x2ECA46" "x2EF781" "x2F56C5" "x2FA59B" "x2FAD9F" "x2FD897" "x2FDB96" "x3050C5" "x305FA1" "x3080F3" "x30B851" "x30BF2A" "x313EB4" "x31711B" "x31861A" "x32050F" "x32B588" "x33369E" "x333DD5" "x335E8E" "x3383E0" "x338931" "x339B2C" "x33B2D7" "x33E102" "x33F024" "x3489FE" "x34B2EB" "x34BBBD" "x360420" "x363D7D" "x365308" "x3670BC" "x36D556" "x37A238" "x37C789" "x37E27D" "x37EB3F" "x38170E" "x3828AD" "x38D5C7" "x39275A" "x3927CD" "x392CBF" "x39FF7E" "x3A610F" "x3A766F" "x3A820B" "x3ACB3B" "x3B07FC" "x3B2981" "x3BD86A" "x3BFC39" "x3C10FA" "x3C131F" "x3C4807" "x3C7542" "x3C9B4E" "x3DB4D7" "x3DC76F" "x3DCE92" "x3DD5D3" "x3DEC00" "x3E24C2" "x3E347B" "x3F01EE" "x3F3355" "x3F4B9B" "x3F5233" "x3F537F" "x3F7A53" "x3F8861" "x3FF213" "x405DCA" "x40B2DE" "x40F546" "x41185D" "x4125BE" "x4156EE" "x4178F3" "x41A3C7" "x41C4B1" "x426CC6" "x428625" "x4303A0" "x43162E" "x431843" "x43525A" "x4352E8" "x43BD4A" "x441080" "x4439B6" "x445E37" "x449E10" "x44ACBD" "x458462" "x45A8BD" "x45AD0B" "x4611B7" "x461F1E" "x46B363" "x46C024" "x47DAB9" "x480772" "x482346" "x483E8A" "x4882E2" "x4892C6" "x489832" "x48B422" "x490E95" "x491F76" "x49B6A7" "x49F08A" "x4A5AAC" "x4AA500" "x4ACA7D" "x4B0B65" "x4B17DB" "x4B6A2E" "x4B965D" "x4B9FCF" "x4BD9C0" "x4BF073" "x4C153A" "x4C6183" "x4C7F1B" "x4CD34B" "x4D40FB" "x4D61C5" "x4DD511" "x4DDB14" "x4E223C" "x4E2DE8" "x4F5E4C" "x4FDC2B" "x500225" "x503546" "x5064B0" "x50B90A" "x50E9C9" "x50F6C0" "x514DDC" "x51626E" "x5252F1" "x525437" "x52646B" "x52B770" "x52D2F1" "x52DE28" "x52F647" "x530023" "x53399C" "x53460F" "x53D559" "x53DDFF" "x53ECD7" "x543A2C" "x54420B" "x5493CE" "x54CCD1" "x556A9C" "x559FE2" "x55B895" "x55BDBD" "x55C7D7" "x55DF4F" "x568651" "x5691E1" "x56AA1D" "x5701DA" "x57538A" "x576151" "x577F5A" "x578EC0" "x57DDA0" "x58273A" "x583292" "x586777" "x5944CF" "x59792F" "x597D5B" "x598AE1" "x5993E2" "x5A3AC0" "x5A76D4" "x5AB097" "x5B4881" "x5BCBEF" "x5BF345" "x5C1431" "x5C153E" "x5C16DA" "x5C1B94" "x5C2504" "x5C257E" "x5C3A5B" "x5C61D9" "x5C9007" "x5C9E7F" "x5CF8E8" "x5D05D1" "x5D3DBE" "x5D47CB" "x5D63E2" "x5D85E6" "x5E40F0" "x5E8C2F" "x5EB7E7" "x5EDA62" "x5EDB0A" "x5FCC5F" "x5FEBC5" "x60097A" "x6023B2" "x602C66" "x603022" "x60FD80" "x60FF15" "x61044C" "x612D4C" "x614A0B" "x6153B9" "x615B55" "x6191B6" "x621713" "x62BAA1" "x62CBC5" "x62CD2D" "x62DCD3" "x63763A" "x6382DD" "x63A349" "x63A92C" "x63D2B4" "x641A73" "x645235" "x648923" "x650AF8" "x651ABF" "x657466" "x65AFCB" "x65F4A4" "x66DDBD" "x66E939" "x66FD83" "x6703FD" "x67FE84" "x6849EB" "x686709" "x688A87" "x68A4C2" "x68C2CF" "x68E22B" "x69404C" "x69F4C8" "x6A2079" "x6A6A6A" "x6A8756" "x6A8F99" "x6AC829" "x6B1788" "x6B643E" "x6B64B0" "x6B7246" "x6B7277" "x6BA2F0" "x6BDCBC" "x6BEC88" "x6BF8A0" "x6C2B3F" "x6CBD13" "x6CCC4E" "x6D2760" "x6D4AA5" "x6D881E" "x6DB0BF" "x6DD994" "x6E9306" "x6E9D61" "x6F0069" "x6F0EE2" "x6F12FB" "x6F77EF" "x6F83E3" "x6F939A" "x6F98D3" "x7164EB" "x718119" "x72651D" "x727644" "x72A43D" "x72B56D" "x73119D" "x73148E" "x736A5E" "x73C640" "x73CFB5" "x743984" "x747BC4" "x74E20C" "x7505CE" "x756618" "x757B4E" "x758C34" "x75E9F3" "x762DCA" "x762FBB" "x764722" "x765687" "x76D66C" "x7721EC" "x779C7E" "x77EABF" "x781474" "x787759" "x78D3B9" "x78DB78" "x790E2B" "x7990AD" "x79EDDF" "x7A5194" "x7A9E4A" "x7B0564" "x7B4B44" "x7B73F1" "x7B994C" "x7BA13E" "x7BEC33" "x7BFA16" "x7C1DBC" "x7C2F94" "x7C547D" "x7C56A7" "x7C9D2C" "x7CBA6B" "x7CBE0B" "x7CC77F" "x7CF944" "x7D1262" "x7D1BF9" "x7D2E7D" "x7DD59E" "x7E592E" "x7E7B8F" "x7E85A9" "x7EA51A" "x7EA5BE" "x7EBFD2" "x7EDDFF" "x7F179D" "x7F2642" "x7F31C7" "x7F4063" "x7F9405" "x805860" "x81BDFD" "x81EBF5" "x829FA5" "x82A904" "x82AFA4" "x82B66A" "x831C37" "x8394A1" "x83CBFA" "x845384" "x845ADE" "x8471CE" "x849EF6" "x84B0F6" "x84EB43" "x857C6C" "x85F7FB" "x863BE3" "x87179A" "x871BDC" "x873584" "x875118" "x878CBF" "x881E54" "x88609E" "x89449F" "x895877" "x89EE66" "x8A9C85" "x8AA630" "x8AB034" "x8B5AB4" "x8C1A14" "x8C1AF2" "x8C3A89" "x8C4339" "x8C4397" "x8C649B" "x8C656D" "x8C7D32" "x8C8283" "x8CED2A" "x8CFA62" "x8D4313" "x8D801C" "x8E0FC3" "x8E111C" "x8E62F9" "x8E6A1D" "x8EA9A3" "x8F553A" "x8F7436" "x8F9677" "x8F97A6" "x8FE2A1" "x8FE5AB" "x8FF205" "x905042" "x907257" "x90EB0E" "x910EE4" "x916497" "x9165B6" "x9168F2" "x919129" "x91D2E4" "x91D56A" "x922E7D" "x92CFCD" "x92E894" "x93145A" "x93459C" "x93D9AF" "x943D34" "x94668A" "x949950" "x94BEF4" "x954256" "x9569C3" "x960E69" "x962817" "x964EE4" "x96B11B" "x96B4F6" "x9709C3" "x970FD6" "x9721EB" "x97314F" "x977569" "x97C429" "x980CEE" "x989C23" "x98B340" "x98E7C3" "x991DD8" "x9A0689" "x9A1ECB" "x9A9180" "x9ADA02" "x9B4806" "x9B8D45" "x9BC91A" "x9BE9C7" "x9BF19F" "x9BF3C8" "x9C1A90" "x9C1CEF" "x9C23A8" "x9CD17E" "x9D07DD" "x9D7645" "x9DA82C" "x9E05B5" "x9E2117" "x9E3090" "x9E34D9" "x9E71D4" "x9E9917" "x9EC0CD" "x9F05DF" "x9F5DFB" "xA01E46" "xA09BF8" "xA0B9B8" "xA0C734" "xA11D55" "xA16724" "xA19C08" "xA1D683" "xA1E2EB" "xA25F8D" "xA29A6E" "xA2ABFA" "xA2F971" "xA38174" "xA3D3A6" "xA42148" "xA4730D" "xA48248" "xA5A4F0" "xA5AA6C" "xA5C0D6" "xA6666F" "xA68D7B" "xA6C859" "xA6F50B" "xA7B1F4" "xA7B36A" "xA888D5" "xA8A9CA" "xA8B818" "xA924A2" "xA97C02" "xA98724" "xA99FCF" "xA9C595" "xA9DBA9" "xA9EBA4" "xAA098D" "xAA1837" "xAA1A65" "xAA1CD5" "xAA6FE9" "xAAC817" "xAB9CFD" "xABDF84" "xAC4581" "xACEC06" "xAD005A" "xAD5ACC" "xAD7828" "xADA9EE" "xADC0BA" "xADC7CF" "xAE038D" "xAE1E42" "xAE6212" "xAF2FDB" "xAF6CAA" "xAFE705" "xB017EA" "xB03FB7" "xB06F38" "xB091B4" "xB0C6FE" "xB13372" "xB14641" "xB16711" "xB171E7" "xB1928E" "xB2529E" "xB2AFC0" "xB2B25D" "xB2DD8C" "xB2FE95" "xB35046" "xB35CD6" "xB37342" "xB43459" "xB47BD1" "xB48393" "xB542BF" "xB60FE3" "xB62FF6" "xB6C546" "xB6FB53" "xB71F67" "xB7576C" "xB75FDB" "xB7CCF4" "xB7F9F9" "xB840EC" "xB85DF0" "xB87E55" "xB8BADD" "xB8D69A" "xB92E1C" "xB94969" "xB95C03" "xB97CB3" "xBA43EF" "xBA71E6" "xBAACF1" "xBAF36E" "xBAF8DF" "xBBB0CF" "xBBCFD6" "xBBE899" "xBBE95B" "xBBEFB1" "xBC18D0" "xBC6EEB" "xBCA55C" "xBCFE54" "xBD23EA" "xBD3E24" "xBD4CC3" "xBD645E" "xBDDFD3" "xBE3282" "xBE50E0" "xBE7EF2" "xBED6A4" "xBEF1F0" "xBF19E4" "xBF25ED" "xBF2C65" "xBF87AA" "xBFCBCE" "xBFD965" "xBFDADD" "xBFF18A" "xC00000" "xC039B7" "xC06675" "xC127C3" "xC12EDD" "xC14112" "xC2B7E3" "xC31379" "xC3425B" "xC39386" "xC3D539" "xC43B66" "xC4D870" "xC5631B" "xC58963" "xC5F076" "xC6746B" "xC68367" "xC69FDD" "xC71793" "xC74610" "xC77507" "xC7C953" "xC7D063" "xC7D17E" "xC7E903" "xC83CB2" "xC86C05" "xC887C5" "xC90E0E" "xC91FE0" "xC9343B" "xC96779" "xC96937" "xC97635" "xC98575" "xCA14D8" "xCA3299" "xCA5DC8" "xCAAAC5" "xCB054C" "xCB2386" "xCB79A9" "xCB8FBE" "xCBAB01" "xCBFADF" "xCC0B86" "xCC2ED1" "xCC5FFD" "xCC907A" "xCCB18D" "xCCE598" "xCDD4E0" "xCDD6E6" "xCDDE8C" "xCDEC4F" "xCEE90B" "xCF080C" "xCF3FED" "xCF55DB" "xCF5EF8" "xCF9C19" "xD01802" "xD051DB" "xD065F1" "xD0B6C2" "xD10FEC" "xD11235" "xD11D05" "xD14AD9" "xD1BB99" "xD1C123" "xD1EF00" "xD27808" "xD27C82" "xD2F9BB" "xD30D06" "xD334F3" "xD34196" "xD3A476" "xD3D52A" "xD3E02B" "xD43DAE" "xD4C390" "xD4E147" "xD4ED47" "xD5BE4A" "xD67098" "xD6791C" "xD68306" "xD82BF2" "xD84651" "xD84904" "xD89E7C" "xD8FD31" "xD91154" "xD933E4" "xD93A7E" "xD95C0B" "xD997BA" "xD9F1D6" "xD9F480" "xDB113E" "xDB358C" "xDB502E" "xDB754C" "xDB87B7" "xDBD6A3" "xDC03C9" "xDD248D" "xDD4131" "xDE84A4" "xDF2A67" "xE0AEE7" "xE0FFCC" "xE120CF" "xE13253" "xE13BE7" "xE1A693" "xE22284" "xE22E41" "xE29434" "xE2E073" "xE2EEB3" "xE2FC83" "xE335C5" "xE35510" "xE37E1A" "xE38EBD" "xE3B9DD" "xE3F393" "xE412C4" "xE440F8" "xE47149" "xE4D2C0" "xE4F7C8" "xE5C832" "xE5CA6A" "xE66133" "xE665B2" "xE66B32" "xE6FFCA" "xE7536B" "xE79B4F" "xE7A7A0" "xE7BB84" "xE83340" "xE859C7" "xE88D0A" "xE8956A" "xE8B145" "xE98306" "xE99351" "xE9B02B" "xE9B55D" "xEA2558" "xEAA023" "xEAAEB2" "xEAB445" "xEB22CE" "xEB5425" "xEB7797" "xEC0332" "xEC0F84" "xEC3DB7" "xEC738A" "xEC7C72" "xEC87AD" "xED1257" "xED30D2" "xED78CE" "xEE6D5F" "xEE75BD" "xEE840F" "xEEA176" "xEF0536" "xEF956E" "xEFA80C" "xF04A61" "xF0CB3D" "xF0F89B" "xF181C1" "xF20258" "xF2A65E" "xF2C82C" "xF2D85D" "xF323DB" "xF34270" "xF3569C" "xF35E72" "xF3698C" "xF38808" "xF39AB9" "xF3DC5C" "xF423DB" "xF48040" "xF49BDC" "xF4A312" "xF4E6EE" "xF4F758" "xF504B3" "xF54742" "xF55596" "xF59546" "xF5FFDC" "xF61916" "xF62433" "xF66766" "xF692C4" "xF76975" "xF7F983" "xF81433" "xF86B0B" "xF8A372" "xF8D55C" "xF8E85E" "xF98C57" "xF9970B" "xF9A1A2" "xF9F1F9" "xFA8312" "xFA9725" "xFAB0F8" "xFB1C89" "xFB564A" "xFC2D40" "xFCA5FD" "xFD9F16" "xFDA67A" "xFDB4ED" "xFE1835" "xFE76E8" "xFEA40C" "xFECC2E" "xFEE042" "xFF0829" "xFFA2D9" "xFFEF4A" "x004935" "x00A000" "x0187D7" "x036981" "x052300" "x085961" "x0A48BB" "x0D9D1A" "x20C0C0" "x227733" "x266DDD" "x2BF430" "x2CE4D9" "x2FEE4D" "x30DED0" "x3575A8" "x38322E" "x3A17A7" "x3CB52E" "x3E4D28" "x3F0EE7" "x496526" "x4F0C2D" "x551707" "x553AEE" "x5637A4" "x5DFA9B" "x639A2C" "x64DA01" "x68129D" "x6845FD" "x6AA85B" "x7147A2" "x74558E" "x872665" "x896ABB" "x8CF087" "x940588" "x9AA5A8" "x9E03D5" "xA040C0" "xA4DD56" "xA92FD8" "xAC33A4" "xB4D972" "xB5A331" "xBBBE62" "xC0F8C2" "xC77F08" "xC8CBF4" "xCD3BA9" "xCF4646" "xD31024" "xD61B40" "xD96A8E" "xDAC21E" "xDCF81F" "xF4C54B" "xFC0388" "xFFBEF7" "x0419A4" "x06ADC6" "x0CE459" "x0F1D3D" "x103F17" "x111E67" "x17732C" "x1F5423" "x25B61A" "x25F09F" "x2743B8" "x293CFE" "x2F14A9" "x37E740" "x399A20" "x39BBAC" "x3A1A26" "x404E40" "x42EA1A" "x45A1A9" "x4960BF" "x4A00D8" "x4E26DC" "x500A3C" "x508345" "x516EE9" "x5E6688" "x637BED" "x6976E3" "x6C865B" "x70746B" "x75F5D2" "x7A125A" "x7E3484" "x7F6C55" "x80A000" "x87ED27" "x9057FD" "x9A8FE0" "x9B28DC" "x9D6DC4" "xA0C0C0" "xA0E237" "xA0ECEC" "xA22631" "xA30109" "xA87938" "xA9C13D" "xAA3291" "xB44E52" "xBB67BF" "xBC98A3" "xBDE344" "xC1118F" "xC305C5" "xC8AC77" "xCBB471" "xCD9293" "xD4E859" "xD618E3" "xD83E52" "xD87AC6" "xD8F5D7" "xDEC345" "xE0E0E0" "xE1EAB1" "xEB2D7C" "xECB422" "xEE8DD8" "xEEE2DF" "xF22299" "xF35EB7" "xF5AD68" "xF62E1E" "xF72662" "xFAEFD3" "xFB0F43" "xFE0977" "x0062B6" "x017C34" "x01C975" "x0456B2" "x0667C7" "x0682D7" "x06E885" "x073B66" "x0B6D01" "x0FB2AA" "x156C47" "x1E57E5" "x1F04CC" "x233F47" "x236126" "x249E28" "x25F860" "x2BCA5E" "x2C976D" "x2CC6D7" "x3B157B" "x3BC3DC" "x402080" "x40339D" "x44332A" "x4690C2" "x4A7CD8" "x4B49F2" "x4DAA8A" "x4DBE4A" "x573B27" "x73354E" "x7355BF" "x744A86" "x774CEA" "x7B1E0A" "x7B7595" "x7D5812" "x81EADA" "x82AA18" "x83926D" "x87941A" "x8C707D" "x96529F" "x9888F6" "x9D7B0E" "x9D92A7" "x9F2532" "xA1A13A" "xA1C84D" "xB20F44" "xB5C710" "xB8D005" "xB94979" "xB95EB2" "xBC0AA9" "xBFA9C4" "xC3178C" "xC998B0" "xCC869C" "xCE1B4B" "xCFD016" "xD00080" "xD06EF9" "xD484FE" "xD7B25C" "xE65BC2" "xE6B7A4" "xE6E56D" "xE836AA" "xEC9F6C" "xED64F1" "xF11FC4" "xFD9C12" "x017E79" "x05E33E" "x07E17F" "x0B9901" "x125FB0" "x129391" "x150652" "x15CB9B" "x1BE078" "x1DAD86" "x22BFC4" "x25C53C" "x26A01D" "x307992" "x31580F" "x32230C" "x348ACD" "x34EDA2" "x433C79" "x4B60B0" "x4E209F" "x4F6919" "x50C000" "x511F34" "x52080F" "x52EB7C" "x5AE64F" "x5B5900" "x61CB37" "x63F85D" "x669059" "x66CBE4" "x687718" "x6EA57A" "x704257" "x719099" "x724089" "x72823F" "x742D27" "x7854CE" "x812CF7" "x820130" "x83741F" "x86F203" "x88B597" "x8C51FE" "x8C7A20" "x904040" "x9F53C7" "xA69111" "xA891E3" "xA90729" "xAB4C21" "xB1E3F4" "xBBFA06" "xBF0C47" "xC5CFEF" "xC8FA49" "xC97B5E" "xCEB851" "xD04000" "xD07052" "xD0C000" "xD5F00A" "xDE4C96" "xE85180" "xE86EE3" "xEB212F" "xEBAEAA" "xEBE9CE" "xF2C402" "xF642DA" "xFD4329" "x050F0F" "x0DE2A6" "x0EB61F" "x109BC0" "x10C080" "x11BB04" "x1213C4" "x170104" "x1AC89E" "x1DF2FD" "x1F5624" "x21EE68" "x22B520" "x2403EF" "x244042" "x27F79C" "x28CC5C" "x2CC9D7" "x319B3E" "x36DEC9" "x3DC80A" "x42A388" "x465DC8" "x52839A" "x533D44" "x57FDB7" "x58C850" "x59773A" "x5B63B5" "x5B70BB" "x5F141F" "x5FBCFF" "x600D92" "x63D8F8" "x65D786" "x65DCDB" "x7105F8" "x818335" "x81DB36" "x82F798" "x84DF43" "x867348" "x89656E" "x8B96F2" "x8BF1A0" "x90C080" "x93B583" "x952F3F" "x977599" "x9F03E3" "xA55B0A" "xAC6092" "xB6CA16" "xB9C5DD" "xBE0B1C" "xC0CBE5" "xCF073F" "xD74652" "xD7B8D9" "xE1622A" "xE35101" "xE387E7" "xE9F52A" "xEC9D85" "xF2158B" "xF2DFDC" "xF3326F" "xF53AA9" "xF89B9D" "xF99A07" "xFABE6A" "x006080" "x05E469" "x092B19" "x0A4987" "x0A9E2B" "x0AABD3" "x0D3B73" "x0F89B6" "x11EFF8" "x14A4F8" "x1508A0" "x15CA79" "x19D061" "x1A505E" "x1C5277" "x1C7988" "x2619FF" "x265A51" "x299FC0" "x2BAD69" "x358AB3" "x39D379" "x3AAFA5" "x3ABADD" "x3AC323" "x3DCC7B" "x3DF911" "x3E174B" "x40E4CF" "x41AC27" "x4AA6B6" "x4CD299" "x4F5A4D" "x508080" "x50B493" "x51B9BC" "x5392DD" "x554220" "x5551A1" "x55C41A" "x571800" "x575CCC" "x5CCA79" "x5DA006" "x5EC3DB" "x60CAD8" "x63252A" "x64283A" "x664C79" "x68D8FB" "x68E0D2" "x6BD915" "x6BDFF3" "x6C53BA" "x6FE354" "x743F41" "x771CB3" "x796B16" "x7C58BC" "x7E7783" "x7F2867" "x7F3DF1" "x7F5540" "x860DD4" "x89BC19" "x8B47B7" "x9025C8" "x904080" "x90FB3B" "x91670D" "x944E30" "x946CC7" "x99CB13" "x9A73C7" "x9A8A93" "x9C13D9" "x9EA705" "xA4DCB6" "xA56B00" "xA6F6FD" "xACF621" "xAD3A6B" "xAED236" "xAF7CB4" "xB2AFD1" "xB2DF51" "xB3A111" "xB891F3" "xB963F3" "xB9C113" "xB9F872" "xBAAB60" "xBD9D59" "xBE9808" "xC02080" "xC0696D" "xC6BBD4" "xC7106E" "xC89BA4" "xC964E5" "xCA5BE4" "xCA8E9D" "xCAC122" "xD51888" "xD56340" "xD5A752" "xD80B74" "xDAEDDD" "xDAF79D" "xDE27DA" "xE29E7C" "xE2ABA8" "xE340DC" "xE3FA4D" "xE979D9" "xE9D326" "xEA0263" "xEA36A6" "xEB65F5" "xEC1DF2" "xECA315" "xEDD51C" "xEEE91D" "xF17880" "xF29AB7" "xF3DCE7" "xF78700" "xF88E77" "xFA2355" "xFB2578" "xFE4B26" "x0020C0" "x002DE6" "x080BEC" "x0EADCE" "x17235E" "x17983F" "x17EF0F" "x184A57" "x18D7A9" "x198845" "x20A1FA" "x224996" "x298347" "x2D7D62" "x30BADD" "x3160D9" "x329C17" "x3816BA" "x3EB1F2" "x43E5A3" "x5080C0" "x5BED05" "x647FB6" "x6B9ADF" "x746873" "x76F55B" "x7A9921" "x8C905E" "x8F0750" "x913BCB" "x9255F2" "x96B71E" "x96D61E" "x98A328" "x9D100E" "x9EA3FF" "x9FB4C1" "xA4C2F6" "xA5970F" "xA5A929" "xAA3B6E" "xAB458E" "xAB7707" "xAF6E5B" "xB5FEC3" "xB7F25B" "xBB73D1" "xBD89ED" "xBEFC85" "xC1C5C5" "xCDE122" "xCE5B60" "xD000C0" "xDD5888" "xE24F6E" "xE5FDC3" "xEE82BD" "xEF51A8" "xF03169" "xF3479B" "xF3C4FA" "xF3EC53" "xFAD908" "x026750" "x08613A" "x0A6682" "x0D6439" "x120F17" "x14E86D" "x176E1A" "x17DA7A" "x1C9F35" "x245CEE" "x3F22C3" "x40F27A" "x47FA09" "x49577A" "x4D2CA3" "x532C36" "x551291" "x56C14E" "x58317B" "x5E7877" "x6466A1" "x680B83" "x6A7412" "x6D06D4" "x6E68EF" "x6FE856" "x74D214" "x75D810" "x78F2DF" "x7A9D37" "x7AD306" "x844BD6" "x859766" "x8B54D5" "x8CE0D2" "x8F4ECF" "x8FB7A5" "x91A08A" "x993FC6" "xABD1D2" "xAD6F67" "xAD862C" "xB182F3" "xB7A857" "xBF6E5B" "xC51FF7" "xC5E80F" "xD080C0" "xD56C26" "xE37FAD" "xE3E1E1" "xEA8626" "xEEDDC3" "xF131A8" "xF1B990" "xF276CA" "xF47AED" "xFA9899" "x085848" "x09025B" "x0F6ED8" "x10C040" "x1204FB" "x199C35" "x26D7F5" "x35C80B" "x369A5E" "x394431" "x3CA80A" "x3E62DB" "x46C0C9" "x4A5CBE" "x4C746E" "x5551C2" "x574B34" "x574C53" "x5A6816" "x5AE35B" "x5BD057" "x5FA3C8" "x6298F3" "x63FAC0" "x63FFC3" "x671F4C" "x675507" "x72799C" "x75B4EE" "x76F2C5" "x782001" "x814008" "x836A23" "x8E9E5A" "x90C040" "x9215D8" "x921E4D" "x924593" "x939662" "x996A90" "x9B4CC5" "xA8C3AF" "xA912ED" "xABDA2C" "xB83435" "xB9B03E" "xC0F9BB" "xC547CE" "xCC97E9" "xD08040" "xD1616D" "xD4B162" "xD5A04C" "xD7F409" "xDFB7E3" "xE2B0F1" "xE3FE43" "xF500FF" "xF7CF1A" "xF823F6" "xF972E7" "xFB92A2" "xFFE6CD" "x029975" "x0364B8" "x05C8DA" "x08A728" "x0B51E5" "x0CD9E6" "x1040C0" "x10C0C0" "x1711F0" "x17C2F0" "x1B1E8B" "x231FA5" "x24CC25" "x25C814" "x2CA41F" "x2D821B" "x405BB7" "x428D5B" "x432B51" "x49EB3C" "x4A5328" "x5196C1" "x54AC76" "x5A143B" "x5D421A" "x6377BB" "x69F3E2" "x6C6CF4" "x76A411" "x770EB3" "x7F42E1" "x876BD0" "x8B2E2A" "x8E9862" "x9040C0" "x9324D1" "x94CB2D" "xA00FE0" "xA68A21" "xAB5E06" "xAF6622" "xB8266A" "xBE4BF0" "xC020D9" "xCF5B71" "xD26D2D" "xD3D517" "xDA6117" "xDF119B" "xE5842F" "xE80F7D" "xEB0DEB" "xEB3089" "xEEC0B1" "xF5DE3F" "x13C47E" "x155091" "x158786" "x269541" "x286941" "x32D681" "x3449B1" "x37CCC2" "x384259" "x3A130C" "x3DC254" "x4034FA" "x47C329" "x49BF7D" "x4BE9C6" "x51621D" "x5C449B" "x5F2DBA" "x70D146" "x7507ED" "x7A707B" "x7A74B8" "x8BDF6D" "x8CD89B" "x90C0C0" "x94D9C2" "x9A9935" "xA07F85" "xA1D6F3" "xAE0966" "xBFD5C4" "xC03040" "xC62026" "xCE7722" "xCF0284" "xD545C6" "xD6ADF2" "xD72549" "xDAABDA" "xE0ACB6" "xE1CC08" "xE43B98" "xE64C00" "xEB66DA" "xEF15A7" "xF3AC52" "xF6681C" "xF98E99" "x070C9D" "x1402BF" "x181555" "x19E16B" "x1CF8D9" "x2126AD" "x316588" "x3D2FD4" "x407080" "x40F000" "x4887AC" "x4B4ADB" "x58998B" "x5B4E4D" "x5F4C23" "x637A11" "x63AA76" "x69827A" "x6B20E7" "x8F2DEF" "x9AE3BD" "x9CA0ED" "xA09531" "xB058B0" "xB20F72" "xB7FD4E" "xBA821E" "xBCAF1A" "xC0F000" "xC5BECD" "xC8F21F" "xC8FD36" "xDA6506" "xF205E8" "xF51011" "xFD9D2F" "x0AC4E5" "x0DAFAE" "x0E60EA" "x1B4F2D" "x1BB57F" "x1BE410" "x4D6DEF" "x508040" "x50C080" "x5171F6" "x53BF8B" "x547EEE" "x591E45" "x5CB3AF" "x5E76CB" "x65632B" "x67104C" "x67DC9A" "x6ED39C" "x701948" "x724BC4" "x7B0051" "x84487E" "x852923" "x8ADB9A" "x91A469" "x948616" "x971521" "x9DC7AE" "x9EA16E" "xA5AFE3" "xBF3FF3" "xCC0FCA" "xCDC95A" "xD00040" "xD04080" "xD3F59D" "xE30DBE" "xE73161" "xEA9822" "xF23379" "xF279B1" "xF5005E" "xFF9F56" "x002D4B" "x03E9D3" "x1080C0" "x1E7531" "x25962B" "x2BB21D" "x356047" "x3E306D" "x4A5F7A" "x4C181C" "x4F3BC6" "x5832CE" "x5BA80C" "x606DBE" "x63CD4F" "x6EE453" "x71153F" "x72D1EA" "x764D7B" "x83139C" "x8DB752" "x9000C0" "x9080C0" "x91CECE" "x97AC4F" "x996F37" "x9A3850" "x9DE484" "x9F7290" "xAB3179" "xAC772A" "xAF2D84" "xB4D320" "xC24F5B" "xC6264B" "xCA1F38" "xCD67AD" "xCF483D" "xD0ED5A" "xD348EA" "xD4B435" "xDD39CE" "xE08573" "xE31CFC" "xE46361" "xE8429C" "xF90AE8" "x00A0C0" "x03F3AE" "x096804" "x0FAD27" "x1000C0" "x108319" "x108E46" "x1B5ADB" "x1B5B1A" "x1B6243" "x1DF928" "x1E5DFD" "x21D67D" "x27DB3F" "x28022C" "x282692" "x289431" "x29243C" "x2E8F99" "x2F06FA" "x36ECCB" "x373F2F" "x450FD3" "x45FBF5" "x46F177" "x4DCFD1" "x4FFFFC" "x54C77A" "x57556B" "x59C9CA" "x5A4A79" "x5CFCFE" "x5D35AB" "x5E307F" "x658093" "x6AD1DD" "x70957E" "x71C380" "x7388CD" "x7B3020" "x8334D0" "x84B824" "x85D457" "x865EB8" "x8D5116" "x929D22" "x9A9297" "x9D934A" "xA8B1F6" "xAB7F2A" "xBDF621" "xBE054B" "xC2D863" "xC5E30A" "xCC4DE2" "xCCC204" "xCDECF0" "xD06D27" "xD0C080" "xDE887C" "xDEFE70" "xDF2B35" "xDFFB08" "xE3F82F" "xE649BF" "xE7EF56" "xECA010" "xEE7CFB" "xF09A2C" "xF3CD0C" "xFBB91E" "xFF83EB" "x049BAB" "x092B18" "x0F38D4" "x16E7BF" "x24883A" "x397AA3" "x39FC40" "x3C47F9" "x3E0D88" "x3E86B7" "x49B5A8" "x4A71CA" "x4B51EB" "x520EFD" "x52A5FD" "x5816B1" "x5FE739" "x618762" "x657999" "x68A47D" "x779B77" "x794B5B" "x80A0C0" "x887276" "x89F507" "x900040" "x941A5A" "x9C97B2" "x9F4495" "xA5C179" "xA6AF2F" "xAA87FB" "xAFF4FA" "xBFF7BC" "xCB7277" "xD04040" "xD0C040" "xD5A704" "xE2A342" "xE3903C" "xE49CB0" "xE6D0B8" "xEB502A" "xEF4297" "xF54CF0" "xF57B6E" "xF6BC89" "x005339" "x26B0DF" "x27EF03" "x285A9A" "x2A554C" "x30D889" "x4BAF24" "x5DA55B" "x708040" "x71AF12" "x73BE17" "x886CA2" "x89D198" "x9977A5" "x9CE5F6" "xC02000" "xC72917" "xC9A306" "xE12B89" "xE236DD" "xE2E68F" "xE36812" "xED4D2B" "xF04080" "xF13865" "x055AA0" "x0B0C98" "x11C5A2" "x1BA1F4" "x2455A8" "x286086" "x28FA31" "x319D44" "x35EAD6" "x4017DC" "x40E080" "x42E736" "x43FD92" "x4D1908" "x4FD630" "x50412A" "x53CE7E" "x569D0A" "x5E05A9" "x5F7EE0" "x6486DD" "x649AB4" "x69C402" "x700040" "x70C000" "x781E75" "x7F1133" "x83AA0C" "x87E8D4" "x8BD355" "x8E8D40" "x9293C6" "x94D7BA" "x95E27E" "x96E11B" "xAE4DDC" "xB34192" "xB41FE2" "xC1AE21" "xC44B48" "xD49785" "xE24063" "xE51181" "xE65320" "xE76A88" "xECE19B" "xF01A7B" "xF0C000" "xF62CC4" "xFDA0D8" "x000090" "x02EC28" "x131587" "x214D38" "x2158FB" "x255558" "x4A3037" "x638C4B" "x6CD2A5" "x704000" "x74A939" "x8B892B" "xA73D1F" "xA8C954" "xA92D73" "xAD9F9F" "xB0C080" "xB61C8A" "xBF2D59" "xC08BCD" "xC31F42" "xC8B64B" "xD043D4" "xD0C0C0" "xE39685" "xE4C01C" "xEDCEDA" "xF04000" "xFC90A5" "x07190B" "x0CE796" "x22372A" "x2BBF97" "x2C3DD6" "x2ED593" "x2EF726" "x345456" "x394A84" "x4987B9" "x4ADDB6" "x552EC3" "x5EBF40" "x5F08F6" "x72B7A5" "x7450B4" "x8ABB32" "x8C6574" "x8CF367" "x8D925C" "x9A4E18" "xB04080" "xB9F919" "xBC5C72" "xC010AA" "xC07000" "xD9E5F5" "xDECE20" "xE0446E" "xF00040" "xF56394" "xFDE30E" "x00F0C0" "x0C4D39" "x0DA56A" "x1BE999" "x273DD7" "x29E11F" "x3F62E9" "x454965" "x4E7A21" "x4EF632" "x5BF189" "x5E6B4D" "x758310" "x7BEEC0" "x807080" "x8A22C2" "x8B0210" "x8C50E2" "x8CA6A9" "x953CF1" "xA3CEBC" "xB51AC8" "xBAAD96" "xC671E3" "xC85BEB" "xDD61CB" "xE36367" "xED1358" "xEDB65F" "xEE80A0" "x00F080" "x0B6E85" "x123257" "x14BCC5" "x2016F5" "x2958AE" "x3B0B58" "x407000" "x4BD19A" "x520559" "x68986B" "x6D0DAC" "x6E06B3" "x80F080" "x861CB7" "x9E0C8B" "xAD9E8B" "xBFD47F" "xCAD065" "xDD0524" "xE1C52F" "xE41653" "xECBE35" "xF0A4C8" "xF641D2" "xFB99F3" "x00F000" "x12DEAF" "x168AE9" "x20B000" "x31044F" "x3837AA" "x3E5AFE" "x40A911" "x43AAC6" "x489DF2" "x492B79" "x53C044" "x5462C6" "x6510ED" "x656E7D" "x6D9811" "x807000" "x8E9218" "x913125" "x966D03" "x98A56F" "x9DD556" "xA50BE3" "xBD9F23" "xC8BB61" "xCC3103" "xCDE01B" "xE8D1CA" "xEE9129" "x0C1D7F" "x1714EE" "x23B4D0" "x2E5E47" "x3126CA" "x31C481" "x3556E5" "x3CDD1A" "x4070C0" "x4407A0" "x552AD8" "x5B1199" "x5CD014" "x65ECBE" "x6E31DE" "x7BCB55" "x7FA347" "x88BDEA" "x8C16F9" "x9088D5" "x976584" "xA03000" "xAAF2AF" "xB06E20" "xC000F0" "xC60D66" "xD0761D" "xDAE3CC" "xE3533E" "xE58A3D" "xE740E5" "xED77FB" "xF0B481" "xF41CC0" "xFE627B" "x13B302" "x14A138" "x169E1F" "x19EFC6" "x21E256" "x391CFA" "x39E367" "x3D2D7D" "x407040" "x40F040" "x476DE4" "x4EA3CA" "x56DBDA" "x69FAA9" "x6D8A9F" "x7B295A" "x802080" "x98A030" "x9BEA44" "xA496A6" "xA86682" "xABCC5E" "xB3D9D8" "xBDB2BA" "xBE8916" "xC07040" "xC2859C" "xCB1A53" "xCD4C42" "xD66E1C" "xE2E34A" "xE631D3" "xE933F3" "xEE9338" "xF0CB48" "xFCECD3" "xFD85D7" "x06D57E" "x08D472" "x0F5821" "x2EA16C" "x30C000" "x364F38" "x366DF2" "x38925B" "x43DB99" "x579843" "x7416CB" "x7755AD" "x82CE19" "x845FC0" "x999738" "xAD371C" "xB04000" "xB865A2" "xCB120B" "x0E3435" "x16482D" "x3CC08F" "x576240" "x5E6C0F" "x708080" "x888194" "xAEB9F5" "xF08000" "x708000" "xEBA646" "x038B77" "x0804CE" "x242311" "x265ADC" "x308080" "x345319" "x413E60" "x4CB9DF" "x501463" "x533151" "x56401E" "x606D4F" "x67DB6F" "x691121" "x6C494D" "x703866" "x75195D" "x7CF534" "x8C787A" "x976E86" "xAC9DC0" "xACC198" "xAF1AEE" "xB00000" "xB7EDCF" "xBC1A94" "xC0C080" "xC4DED4" "xC786AB" "xCDBD85" "xDD6B3C" "xE2ACEE" "xF08080" "xF1C228" "x503169" "x552873" "x716F90" "xA14B4E" "xF00000" "x00A080" "x0212BC" "x108040" "x1B1B01" "x22BBD7" "x26D283" "x2938A5" "x2B0E33" "x2FBF72" "x33B258" "x34036E" "x3FEEB5" "x445F91" "x4A94CA" "x4E0162" "x50C040" "x543986" "x585A65" "x67EB18" "x6B3BE8" "x6D1F7A" "x6D8AAA" "x6F02DA" "x746E6F" "x7514E0" "x7A2E59" "x806000" "x908040" "x977A71" "x999D9F" "x9EA280" "xA36021" "xA53D3B" "xAD5337" "xB90E0D" "xBCB645" "xBD8B8B" "xCD3BFC" "xD998BB" "xEB7340" "xF68D89" "xF82338" "x1A77EA" "x939ACE" "xC5CE93" "x3040C0" "x7DE678" "x9D3A73" "x13444D" "x211ECF" "x382709" "x8D8744" "xA58ED2" "xB040C0" "x1DC591" "x2B5499" "x30C040" "x3E6BAD" "x92CF0F" "xB16D83" "xBB7965" "xD871BE" "xDB930D" "x142566" "x30F1AF" "x34FFC4" "x38CCDA" "x3FA10D" "xB0C040" "x1CA7B0" "x1E33E8" "x262924" "x441473" "x54816B" "x5806F4" "x59DEDF" "x6AE419" "x6B3A42" "x6E757B" "x7182E8" "x8243C0" "x8F9450" "x990681" "xA5DE9D" "xB04040" "xBD7C03" "xC2B02B" "xC4CDFC" "xD64964" "xD68A28" "xEFC355" "xF080C0" "xF2502E" "xFB9715" "xFBEDD6" "xFCFF52" "x007040" "x00F040" "x0F9A00" "x1B47BD" "x228851" "x338BD7" "x3C4F8A" "x3EA432" "x4DC66C" "x58A1C9" "x5961F9" "x5B809B" "x644A75" "x6FBF63" "x711CB6" "x7342E7" "x758494" "x785402" "x7BF507" "x7DE315" "x7F5918" "x807040" "x8070C0" "x81AAED" "xA59977" "xABF402" "xC58DAF" "xD01C13" "xD8D851" "xDBBF9F" "xE5DA13" "xF3C9D3" "x044448" "x13DF28" "x174B8E" "x1AFAE8" "x1D0AA3" "x23017D" "x24D112" "x276EB1" "x2C62ED" "x326026" "x37D3FD" "x38A656" "x3E927D" "x3F5E68" "x3FB458" "x4D739A" "x52FA0B" "x53E828" "x54A0C5" "x567651" "x5708EE" "x5CEFAC" "x75E9AD" "x7E6D79" "x7F33D3" "x83E7A7" "x8E2C1A" "x8F9823" "x901FD6" "x904000" "x9271BC" "x9ADC65" "x9B34F6" "x9BA0EB" "x9E50CC" "x9FC5C3" "xA3BC1C" "xA54D29" "xA73DE5" "xA7E6DC" "xA9B917" "xAB025B" "xADCDE9" "xAF38BD" "xB33EEF" "xB3AE0B" "xB6B187" "xBC1C92" "xC2D850" "xC3F179" "xC71490" "xCBA4C1" "xD08080" "xD13E4A" "xD4D9A8" "xD52E98" "xD9ABAF" "xE49638" "xEC4FF4" "xF10601" "xF3B4BA" "xF441CF" "xF480A1" "xFC38F6" "x0070C0" "x007602" "x1FA379" "x2C6AA0" "x31E5D4" "x3B0FAE" "x47BF09" "x6F7B23" "x7AAA59" "x8998F6" "x8E69FE" "x9B1B8B" "xAF8C38" "xD4D27E" "xD641CB" "xE2F040" "xF5B3A1" "xF83D99" "xF93340" "x492B26" "x6090C0" "xB5403E" "x00AFDF" "x00CB48" "x00F376" "x011713" "x0137A1" "x0183A1" "x020DF9" "x037F88" "x04633F" "x0538F5" "x06958B" "x06B1FE" "x0708AD" "x08335D" "x08C8AF" "x08F7A9" "x0B249E" "x0B7201" "x0CA605" "x0D2971" "x0D2F27" "x0D7566" "x0DB925" "x0E2F58" "x0FE1B2" "x101204" "x1176C6" "x117C95" "x11DEB9" "x123762" "x13F9FA" "x15C12C" "x1695DF" "x16DB09" "x171782" "x17AEB7" "x192C84" "x196C5F" "x1B4C6D" "x1C432A" "x1C5746" "x1C6F98" "x1DDB81" "x1E2884" "x1E31A0" "x1F0D15" "x1FD5F8" "x20327A" "x206622" "x208AF2" "x20E92A" "x20F7A5" "x22E40F" "x232DBD" "x23C839" "x24171D" "x243B2A" "x24691A" "x256309" "x257105" "x263F77" "x26EF2A" "x271949" "x271DAB" "x280A1D" "x297066" "x29BE41" "x2A08D3" "x2A8963" "x2AD0E3" "x2B36A1" "x2B78B9" "x2BC058" "x2BCBC7" "x2DD641" "x2E016E" "x2E6C75" "x2F2C82" "x2F570D" "x308040" "x313BB2" "x317FB3" "x3193EA" "x31A991" "x3344F6" "x337ECF" "x33BD4E" "x343659" "x343E89" "x355ACA" "x361609" "x36B818" "x37D9E8" "x383EA0" "x388C4E" "x3927F5" "x398E4C" "x399CA7" "x3C2A27" "x3CB77D" "x3E7368" "x3EBFED" "x4020C0" "x403994" "x406000" "x411A9B" "x4164F7" "x41A233" "x41E621" "x42DDAE" "x42F312" "x466A98" "x480B4B" "x48DFB9" "x48E362" "x490D2A" "x49AD61" "x4A04B2" "x4B096D" "x4B09C5" "x4C056C" "x4C823A" "x4CF9F7" "x4D24AC" "x4D3033" "x4DFFCD" "x4F35D0" "x4F738B" "x503D32" "x507BF4" "x515254" "x51A9EA" "x520BF5" "x527017" "x54F237" "x560E55" "x5699D1" "x569E74" "x56A6FD" "x56D964" "x578996" "x58158A" "x5A3D13" "x5B310A" "x5B8A5F" "x5D7155" "x5D7A14" "x5D9879" "x5D9B41" "x5E776D" "x5EACB8" "x5F5F99" "x5FD282" "x61C521" "x61CD70" "x627826" "x62BAF4" "x6334F9" "x64970E" "x64AD7D" "x65F177" "x676E1E" "x677647" "x6893B6" "x6A902F" "x6AEBC5" "x6B2093" "x6B64F8" "x6BCC92" "x6CA726" "x6CBB4F" "x6E31A1" "x6E6170" "x6E78AC" "x6E90EA" "x6FFE7E" "x724F63" "x729349" "x738279" "x7383DF" "x744A7A" "x74590E" "x7505F0" "x76A0E6" "x77BC8D" "x780AAA" "x78A3BA" "x790E5B" "x795AD3" "x79DC59" "x7A5E12" "x7AB82C" "x7B1AE4" "x7BD091" "x7CF31C" "x7FB431" "x80F104" "x824210" "x82492B" "x827B75" "x83ADCB" "x853B98" "x866C8A" "x88147F" "x8D15CB" "x8D6CB1" "x8D992E" "x8E20D9" "x8EE117" "x8F87B9" "x903279" "x90A5C2" "x90FAEA" "x92D783" "x932B65" "x93ACBB" "x93BD4C" "x940C24" "x941B9D" "x9552A3" "x9577B0" "x969229" "x96C2FB" "x993ABF" "x99AB17" "x99F3C4" "x9A44C7" "x9AA464" "x9B27B9" "x9C3F51" "x9C6E87" "x9CC0D0" "x9CC19E" "x9DBFA5" "x9DF567" "x9E289B" "x9E46FD" "x9E7CAD" "x9EBD23" "x9F77E9" "xA00289" "xA07380" "xA11839" "xA18606" "xA1D195" "xA1E55B" "xA22F7E" "xA24EB6" "xA2F8DD" "xA4CD73" "xA6F3BA" "xA70030" "xA794C1" "xA7B9EE" "xA7D370" "xA83989" "xA8C5E8" "xA92847" "xAB2C76" "xAB9DB4" "xABA06F" "xACD62E" "xAD5354" "xAD7D1F" "xAE0541" "xAE2D58" "xAEBFFF" "xAFBE4E" "xB00040" "xB000C0" "xB026C2" "xB08040" "xB080C0" "xB090AD" "xB0CB2A" "xB1A86D" "xB27FD6" "xB2D5DC" "xB4468D" "xB4F7B9" "xB54962" "xB6B30D" "xBA1406" "xBAB329" "xBCF90D" "xBDBECB" "xBDD238" "xBE6ADE" "xBEF64A" "xC0110A" "xC0A0C0" "xC1233A" "xC134A4" "xC33C7E" "xC42B28" "xC5041F" "xC75F8C" "xC893EC" "xC8D6E6" "xC95021" "xC97CED" "xCA480F" "xCE6D4A" "xCF1990" "xCFBCE8" "xD03BF3" "xD17651" "xD1DB51" "xD1F43F" "xD29273" "xD2B39A" "xD2CE4C" "xD2EE35" "xD319EB" "xD37405" "xD3807D" "xD389DE" "xD5540C" "xD567EB" "xD5B4A4" "xD5CD71" "xD5F515" "xD6162E" "xD64816" "xD7414C" "xD841D9" "xD849E6" "xDA3337" "xDB8797" "xDC58AB" "xDCE271" "xDD7290" "xDE7B99" "xDEDA97" "xE0DA0B" "xE1F252" "xE2FA8E" "xE50D46" "xE519FE" "xE58C05" "xE61337" "xE6C706" "xE756C1" "xE961E9" "xE99D1D" "xE9F39B" "xEA4FC0" "xEAEBD8" "xEB4BDB" "xECA516" "xED34E6" "xED6465" "xEF374F" "xF03811" "xF2120D" "xF3D744" "xF45C86" "xF49F6D" "xF6A5A4" "xF6CE39" "xF738D5" "xF7E3F8" "xFA9AF5" "xFBB002" "xFC4326" "xFC4F0D" "xFC9A0A" "xFE02CE" "xFF5559" "xFF8A91" "x082153" "x085C83" "x20CF66" "x326F36" "x380F20" "x406FBA" "x484A09" "x493CD4" "x4D9EEE" "x5A0CA8" "x62FC6A" "x63E1C4" "x66DFE7" "x6B5822" "x7040C0" "x70A0CE" "x70C040" "x71A015" "x740012" "x8060C0" "x80AA26" "x8CFA32" "x8E553E" "x8ED253" "x905458" "x99CA75" "xB95DB3" "xBB0F05" "xC060C0" "xC91FD7" "xCA0399" "xD090A6" "xDE0FD5" "xE4892F" "xEAFA99" "xEC5B4B" "xEE2FFF" "xF01C37" "xF04040" "xF95D47" "x0000C0" "x012169" "x01C4BC" "x0214DF" "x0313AC" "x038C02" "x04464B" "x0450DF" "x0452F3" "x048C88" "x06255C" "x062E92" "x0696ED" "x06E7AA" "x06F336" "x06FA79" "x0707C7" "x07097E" "x084179" "x085D59" "x08F4CE" "x09896C" "x0AA539" "x0B1976" "x0B40B9" "x0B4DFD" "x0B737C" "x0B9764" "x0BB7BA" "x0C21B6" "x0C6AE4" "x0DC085" "x0F4839" "x0F855D" "x0F9997" "x104F0A" "x10547B" "x11192E" "x118D77" "x11FD71" "x12A5D2" "x12FF08" "x13C360" "x141935" "x14E213" "x1590F6" "x15EE59" "x161E99" "x16CFCB" "x171EDD" "x191E87" "x193F3B" "x19A366" "x1A1027" "x1A9915" "x1B2A0A" "x1B5387" "x1B5812" "x1B97E4" "x1C322F" "x1C9CA2" "x1DE99F" "x1E71B4" "x1E8EC1" "x1EC3C7" "x1F1E03" "x1F46D0" "x1F7BA8" "x1FBB10" "x1FD040" "x20C1F0" "x20F60D" "x21597F" "x21D72E" "x220B8D" "x228775" "x22F3B7" "x232423" "x2334F4" "x23A620" "x23F6CC" "x2437CE" "x247A18" "x25379C" "x2548AE" "x2557A8" "x259187" "x25ABA0" "x25DC66" "x26EF74" "x271C30" "x2793A0" "x28174F" "x290B54" "x294669" "x29C046" "x2A40F1" "x2A8839" "x2AD507" "x2AE27A" "x2BF734" "x2C4C0F" "x2F1701" "x3000C0" "x307A15" "x315EF7" "x31CABE" "x326543" "x3288EF" "x328A2E" "x32A6F4" "x32DFD2" "x33C3E1" "x340423" "x350047" "x352860" "x35E144" "x36876C" "x369B85" "x372676" "x373813" "x376D14" "x3884E9" "x388916" "x38B429" "x38C993" "x392025" "x39E87E" "x3A1131" "x3A64DE" "x3B30DA" "x3C2F86" "x3C581D" "x3C9588" "x3CE2C4" "x3EA9C4" "x3ED2DB" "x3F2BFB" "x3F7D99" "x3FFFF0" "x406040" "x4097DC" "x4112AA" "x4137BC" "x42B6B7" "x432D6D" "x43B321" "x44483D" "x44D5C6" "x46467A" "x466830" "x466E9B" "x46C43B" "x46DF18" "x47430B" "x480C58" "x485CCA" "x488BFB" "x48E333" "x499FB6" "x49A066" "x4A9F05" "x4AA93D" "x4AAEE7" "x4ACA5F" "x4ACE4A" "x4B1A1D" "x4B1E93" "x4B32DC" "x4C54AE" "x4C8B4F" "x4D0622" "x4D27E6" "x4D370F" "x4DECB4" "x4E49A6" "x4EA501" "x4ECB15" "x4EF8E9" "x4F1A54" "x4F335A" "x5021DF" "x5040AF" "x507C6B" "x50B299" "x517A80" "x51949A" "x51CF24" "x521409" "x5233FC" "x525B58" "x526D36" "x52846A" "x52A151" "x537B4B" "x53E74E" "x53E955" "x54D79E" "x5529FD" "x56175A" "x561CF3" "x568C12" "x56F70F" "x5763FF" "x57AFB7" "x57C5DE" "x59FBA8" "x5A3388" "x5A7228" "x5A7A37" "x5AA7DC" "x5B10C0" "x5B8149" "x5BA141" "x5C3957" "x5CA0A8" "x5D1B1A" "x5DDD25" "x5E2FC8" "x5E6DF6" "x5E9628" "x5EE3F1" "x5EF02F" "x5F4665" "x5F5ECA" "x5FA5AF" "x5FA9ED" "x5FFAB6" "x6040C4" "x604A53" "x605307" "x6084E4" "x60FC5C" "x617B18" "x61804D" "x61E6E2" "x62CE97" "x63918E" "x6443EB" "x6480AE" "x6490D9" "x66A256" "x66CBE1" "x66ECB4" "x66FDF8" "x6792EB" "x67C76E" "x67CF61" "x681A84" "x68370F" "x683FB6" "x68402A" "x684AD0" "x68DBF9" "x699939" "x69A300" "x69E64D" "x6AF51D" "x6B1341" "x6B3EB5" "x6BA0D6" "x6D0523" "x6D188A" "x6D2618" "x6D42F4" "x6DE406" "x6E6753" "x6E7083" "x6EC829" "x6FA797" "x6FC6B9" "x6FCB2D" "x7020B3" "x706AAD" "x71A953" "x71AC15" "x71BCD8" "x721561" "x721A36" "x72DCBA" "x732D2D" "x7351A8" "x74B0C7" "x74EB3D" "x7562C6" "x76410F" "x7673F1" "x76A99E" "x76C5CF" "x76F0E9" "x772161" "x773791" "x782D9A" "x788810" "x795074" "x79694A" "x798F9E" "x79E1C6" "x7A0F83" "x7A9B4A" "x7AE0A2" "x7B5364" "x7B6229" "x7B728D" "x7BB2F1" "x7BDAD0" "x7BE7D8" "x7C2B11" "x7C3F68" "x7C74E8" "x7C9F7A" "x7CEC81" "x7D7012" "x7E0B84" "x7E3609" "x7F0C4F" "x7F1F42" "x804729" "x80C199" "x80E040" "x80E0C0" "x81378E" "x81B203" "x824434" "x82A9AF" "x8329D3" "x834484" "x83B071" "x83E3CE" "x83E4FF" "x85B0C2" "x864A3A" "x86F0BB" "x871E9A" "x87DEC2" "x889A4C" "x89B43F" "x89CE59" "x89FA93" "x8A6937" "x8A7725" "x8B2119" "x8B2A99" "x8B6679" "x8B8F3A" "x8C5AA9" "x8C76A6" "x8CF0B9" "x8D0FEE" "x8D25E9" "x8D50A1" "x8DECC8" "x8DF3C2" "x8E075C" "x8E1DAC" "x8F8A9B" "x9050B8" "x907833" "x90B03E" "x912A4C" "x917230" "x92174D" "x92F132" "x9315BC" "x93518A" "x939A08" "x943CCB" "x94FA65" "x955D56" "x958FE3" "x95A010" "x95E0DC" "x960ABF" "x96B85F" "x972704" "x987579" "x9A6A15" "x9ACBBF" "x9AE75E" "x9B5749" "x9B6054" "x9B7A14" "x9C19E2" "x9C5236" "x9C7D80" "x9C85FA" "x9D0D78" "x9D46B1" "x9D6F87" "x9DBE36" "x9F5988" "x9F961D" "xA0C3E5" "xA1B5A5" "xA20189" "xA23F03" "xA2D6C3" "xA34B9C" "xA459B4" "xA49D73" "xA4B0DF" "xA54A42" "xA5B2EC" "xA5BE2D" "xA67C5C" "xA69AB7" "xA7B019" "xA7EA05" "xA8A05F" "xA8BE58" "xA8C364" "xA8EA6D" "xA9F068" "xAA9CDB" "xAB6E38" "xAB6FE2" "xAB9C44" "xABA573" "xABCF6B" "xAC0620" "xAC9AD6" "xACC1E7" "xAD0AEC" "xAD2B5F" "xAD4667" "xAE1EF2" "xAE70AF" "xAF2EFE" "xAF45D7" "xAF4675" "xAF8F89" "xB040B8" "xB0C0C0" "xB0D24A" "xB0DA28" "xB0F75B" "xB161AA" "xB22E87" "xB3AED8" "xB3BFE3" "xB4DF14" "xB4FE75" "xB5326C" "xB5E4EC" "xB6023C" "xB671B8" "xB67DFB" "xB6F3E3" "xB70866" "xB70A86" "xB7A766" "xB7FF8A" "xB838EC" "xB95E82" "xB9A32D" "xB9DD91" "xBA04A4" "xBABC7F" "xBB2C30" "xBB606D" "xBB863E" "xBCA821" "xBD1776" "xBED37A" "xBEE924" "xBF2C9C" "xC0049D" "xC04BB6" "xC0960B" "xC0A695" "xC0A7EF" "xC0DE62" "xC10D12" "xC13D2C" "xC1A1E6" "xC236BD" "xC239F2" "xC303BD" "xC3AB02" "xC3B4F8" "xC43F22" "xC4C803" "xC62D1B" "xC6F8C3" "xC75269" "xC82B9F" "xC83B39" "xC8540F" "xC8CBDC" "xC8D924" "xC940C5" "xC9A97E" "xCA369E" "xCA4BCC" "xCA5E91" "xCA6F1B" "xCAF05D" "xCB411E" "xCB447A" "xCCB94B" "xCD957E" "xCE0625" "xCECCED" "xCFCB67" "xD03CD5" "xD040C0" "xD0550D" "xD09E14" "xD11049" "xD1352B" "xD17183" "xD1C961" "xD20107" "xD272BD" "xD31A5C" "xD34DE8" "xD3AA4E" "xD3F860" "xD414F5" "xD45D25" "xD48872" "xD4A195" "xD4A5DD" "xD4E8B5" "xD4F421" "xD51F8E" "xD5666E" "xD5828B" "xD607D9" "xD669F9" "xD7386D" "xD74D19" "xD822EC" "xD84B92" "xD87585" "xD8A57B" "xD93335" "xD99AA0" "xD9E9FB" "xDA0669" "xDA3FBC" "xDAC797" "xDAE151" "xDB25C8" "xDC6999" "xDDBFBD" "xDDCD0D" "xDDEA3F" "xDE17D2" "xDE6C73" "xDEEEDD" "xDF6F96" "xE18042" "xE29144" "xE2B5DA" "xE2FFD8" "xE36DAC" "xE40566" "xE47745" "xE4EB3C" "xE55165" "xE572EB" "xE58487" "xE5A8D9" "xE5D1BC" "xE6153B" "xE61C07" "xE82270" "xE8FC9D" "xE94E94" "xE9A095" "xE9C5AA" "xEA225D" "xEA49D9" "xEA68F6" "xEA82C4" "xEABC88" "xEAF0AB" "xEB2761" "xEB2882" "xEB9966" "xEBC6D3" "xEC09D5" "xEC29F7" "xEC2CF8" "xEC6322" "xEC7382" "xEC77EB" "xEC8B7D" "xED6B51" "xEDA6BE" "xEE3A97" "xEF033C" "xEF8303" "xEFCD73" "xF040C0" "xF04D97" "xF0544F" "xF096A5" "xF0C080" "xF0DE11" "xF16E7A" "xF1721C" "xF1724F" "xF2ADD1" "xF2B920" "xF2BF7E" "xF2ED32" "xF306C9" "xF35B22" "xF3DF90" "xF3F346" "xF5F4E3" "xF6B33D" "xF6D76F" "xF723EE" "xF7DBB7" "xF7E5FD" "xF903C7" "xF9AA56" "xF9B019" "xF9DB91" "xFA2FD7" "xFB68BF" "xFBAD9B" "xFC2BFD" "xFCCEDB" "xFCE590" "xFCE71C" "xFD27C5" "xFDA361" "xFE2104" "xFE2408" "xFE65FC" "xFF1907" "xFF37F3" "xFF3AE7" "xFF53C3" "xFF9824" "xFFBEBC" "x0060C0" "x0064C5" "x021E3A" "x032662" "x03D1C9" "x04819F" "x06F38C" "x07F4FB" "x087678" "x0A4A4C" "x0BC8C1" "x0C0CCC" "x0C6598" "x0CC129" "x0DB516" "x10A000" "x1253C5" "x171ACD" "x177AE0" "x188A1D" "x1A3E3D" "x1BAAF2" "x1DC31A" "x1E71F4" "x1FA5AC" "x2345D0" "x23500D" "x24AD62" "x28520D" "x29399E" "x29924F" "x2C9384" "x2CCABA" "x2D3204" "x326D52" "x365C92" "x37D0BC" "x38B630" "x3B17A5" "x3BFC08" "x3E0978" "x3E5986" "x40777E" "x4192EE" "x433B03" "x43CF86" "x484DEC" "x48C5E0" "x48F357" "x4B3D6E" "x4BCBC3" "x515BA4" "x543388" "x563A89" "x56E072" "x581057" "x59020C" "x5B7DBA" "x5BE06B" "x5C5DE8" "x5CA682" "x5EF6EB" "x5F3317" "x5FE782" "x65B146" "x68F55E" "x6A488F" "x6C9CAE" "x7046BA" "x73BF8D" "x74E14D" "x773701" "x77EF94" "x781F7B" "x793CFE" "x798C8E" "x79AB95" "x7A4A5E" "x7C0D56" "x7C4AAC" "x7E85FA" "x7EE516" "x7FA89F" "x818D9D" "x84A349" "x8588BF" "x8AB607" "x8B0AB0" "x8BC7DA" "x8C6B34" "x8CD97A" "x8D480C" "x8D49CD" "x8D790B" "x8E933E" "x9056EC" "x908155" "x943CA5" "x9D9919" "xA148A8" "xA1628C" "xA2094F" "xA4445F" "xA82803" "xA8774F" "xA9CE06" "xAA1E16" "xAD6639" "xB19217" "xB35FC1" "xB378BB" "xB54ED1" "xB83486" "xB8FE88" "xB9B943" "xBACEF7" "xBC9D94" "xBCB8D9" "xBEBEFA" "xBFC7D9" "xC0DD8B" "xC1A729" "xC53CD1" "xC6E552" "xCB2F2F" "xCB412F" "xCB5A8F" "xCBBE16" "xD1A6A0" "xD1D79F" "xD6143F" "xD81BB8" "xD9C831" "xDB0704" "xDBAC6B" "xDCDD4E" "xDD4CEB" "xDDA6FC" "xDE7BE8" "xDE7D17" "xE0CBAB" "xE29640" "xE6783B" "xE6AAB9" "xE888D6" "xEB2540" "xECE49F" "xEE4F4F" "xEF77D5" "xF3C2BB" "xF7CF7E" "xFC3A5F" "xFE4F9F" "xFF4C93" "x001B22" "x00A20A" "x00E000" "x00F631" "x02A092" "x02E8DA" "x043FC9" "x060C67" "x069B96" "x072DDC" "x0877DA" "x0A5171" "x0A84C8" "x0AD3C1" "x0AD7A5" "x0C61FE" "x0E6B0A" "x0E80FB" "x0EC207" "x0ED37A" "x107893" "x10BF0F" "x1197CD" "x120EEA" "x12AF70" "x1392FD" "x1426B4" "x144E07" "x150075" "x186AF1" "x188022" "x1A8A74" "x1C413A" "x1EEBB5" "x1F8897" "x208EA9" "x21E777" "x22820C" "x228B87" "x23BA24" "x253A98" "x26DB64" "x285A4E" "x2872BA" "x28E099" "x2A6D2A" "x2B2E3C" "x2D5C98" "x2F5B26" "x2FA24B" "x30494E" "x30C494" "x311442" "x317BA1" "x330FF6" "x356F1D" "x3628B1" "x3673D9" "x368FA7" "x373E0D" "x381007" "x394C8F" "x397F40" "x3991AB" "x39D17F" "x39E46C" "x3B027F" "x3D060D" "x3F4262" "x402B2E" "x40A0EA" "x433BC6" "x44A1D9" "x471B95" "x47B094" "x487992" "x4B5372" "x4C24EF" "x4C8C5C" "x4CE8AA" "x4D6778" "x4E03E3" "x4E9B73" "x4F80B8" "x4FB5BD" "x518D4F" "x518F22" "x51CEC5" "x52FCB4" "x553A3E" "x556882" "x55DBF6" "x55F9AB" "x56971B" "x5779A2" "x583EAA" "x594542" "x5A0896" "x5A43D4" "x5F4387" "x617DFB" "x61C9B8" "x6241E5" "x62957E" "x633A67" "x650C02" "x664D82" "x66AC8D" "x670A46" "x673CA0" "x676674" "x67CABB" "x699C1E" "x69BED1" "x6A64CD" "x6B0266" "x6B4B18" "x6DC09D" "x70370B" "x7050F0" "x7340B5" "x74C214" "x74E2CF" "x7502D8" "x759E96" "x75BE3E" "x771C6F" "x78DD97" "x7911BB" "x799CFA" "x7A03DC" "x7A784F" "x7B461E" "x7CFF5B" "x7EF3C4" "x7F49E7" "x7F61B1" "x7FFA1D" "x80A080" "x80A0A3" "x80E000" "x81ED91" "x82238C" "x838093" "x840A15" "x84BE26" "x8626E9" "x86DBFA" "x86EE41" "x872D1D" "x87ACEC" "x886E4A" "x89C402" "x89C61F" "x8A3275" "x8A563D" "x8A6D99" "x8C6FB2" "x8D811F" "x8E154A" "x8ED889" "x8F67DC" "x907360" "x91D858" "x91D882" "x926957" "x92AABE" "x92AD8F" "x933C14" "x95DEB0" "x973257" "x97D4A4" "x980251" "x98BA43" "x98F80A" "x9A52F2" "x9A96BA" "x9D7865" "x9EAABC" "x9EC04E" "x9EFDD4" "xA09DAF" "xA150DD" "xA27A1D" "xA2B002" "xA3151A" "xA45402" "xA489BA" "xA4C569" "xA68F40" "xA74A2F" "xA75296" "xA818F4" "xA86910" "xA8913B" "xA91FD6" "xA93567" "xA9976F" "xAA6118" "xAA92A6" "xAD218D" "xAE0292" "xAEB7C9" "xAF9CE8" "xB0A5D3" "xB12674" "xB1775F" "xB24198" "xB27E30" "xB2B31F" "xB4ED84" "xB5F792" "xB61825" "xB66B81" "xB84007" "xB88CBC" "xB94FD8" "xBBFB01" "xBDAC6B" "xBDEC44" "xBE8DC0" "xC04000" "xC07FC1" "xC0A080" "xC17DB9" "xC1BB87" "xC286C9" "xC33300" "xC3D71F" "xC45E08" "xC4E828" "xC5A257" "xC6334C" "xC65514" "xC821DC" "xC94F32" "xC9BE8F" "xCA6EA4" "xCAC792" "xCADD23" "xCB25CA" "xCB77D5" "xCD4C74" "xCD72AD" "xCDAC4C" "xCE9875" "xD095C2" "xD17431" "xD1A1D9" "xD1D7E7" "xD27629" "xD44FBB" "xD71124" "xD8277C" "xDAAC5C" "xDC6A00" "xDC7245" "xDCC985" "xDFA1BB" "xE154E6" "xE1C1A4" "xE225BE" "xE2BAEB" "xE32D1B" "xE4209A" "xE4404B" "xE54214" "xE6E5C3" "xE85E02" "xE99CD6" "xEAEF3D" "xEB7E0E" "xEC5A3A" "xEDDF68" "xEF3717" "xEF3ED9" "xEF9AF6" "xEFA433" "xF04EE4" "xF057A9" "xF11EDD" "xF16167" "xF2DFA3" "xF3AD96" "xF43CC8" "xF4EC2D" "xF56F14" "xF57F4E" "xF5D3A9" "xF7A1C4" "xFADEBC" "xFB8137" "xFCA61C" "xFCB25C" "xFE3901" "xFE758C" "x0019C8" "x003C0A" "x003E09" "x004080" "x0361F9" "x03A13C" "x03EA0D" "x046319" "x04D4BA" "x05085F" "x064FE6" "x06BB33" "x06EEAC" "x07C186" "x082A0F" "x084C04" "x08B5F9" "x094EE3" "x098440" "x09EC2E" "x0C324C" "x0C50AB" "x0D33A7" "x0D541B" "x0D5E87" "x0EAE6C" "x0EF29E" "x0F979F" "x0FC30C" "x0FD228" "x105E9E" "x123BDD" "x124B70" "x13BF55" "x149257" "x17186D" "x172779" "x173D99" "x17AC99" "x196BBC" "x1A457C" "x1A8981" "x1BD217" "x1C0D58" "x1C6431" "x1D0C09" "x1FD5D0" "x20156D" "x202671" "x20A6BC" "x20D07C" "x211659" "x2142B1" "x21CE74" "x22717E" "x23E4DE" "x24FAB0" "x252116" "x2541A9" "x25DD86" "x2600C9" "x2613CC" "x267F51" "x26FE6E" "x277AC6" "x27B8CB" "x27D1C9" "x28613E" "x2B750F" "x2BBEA4" "x2DA2D0" "x2E14F8" "x2F367F" "x2F6DE4" "x304439" "x3108CF" "x32E810" "x335573" "x34639F" "x34C75E" "x34C789" "x353F41" "x35417D" "x361836" "x362E8F" "x364F5D" "x367CC4" "x36EDBC" "x377B09" "x37C6AC" "x37D2E9" "x383856" "x38DFFE" "x396FB1" "x398AB7" "x3A5746" "x3B97B7" "x3D7CF6" "x3EF318" "x3F0544" "x3F6E46" "x40028F" "x411CE0" "x42CC6B" "x4383D7" "x44535C" "x453F2B" "x45712D" "x457EDC" "x45CCD8" "x462445" "x46BACD" "x475882" "x48A9D1" "x490D37" "x497376" "x4A2D16" "x4AD217" "x4AFA0E" "x4B2499" "x4C08A9" "x4CB32B" "x4D08E1" "x4D34B5" "x4D3ACE" "x4D47EB" "x4DF1B5" "x4EBD49" "x4F2908" "x501E7B" "x502BC0" "x515BE2" "x51B430" "x521640" "x5249E0" "x52C081" "x53444F" "x539C2F" "x53FA26" "x54C8A5" "x5502EC" "x56DFDD" "x58555F" "x58A2F5" "x59F3FC" "x5A6F3E" "x5A9BA4" "x5AE4F9" "x5BB5B5" "x5C6656" "x5C8E10" "x5D8407" "x5DC4E3" "x5E0CD6" "x5F06D2" "x5FBAA3" "x6031E8" "x6040C0" "x605F60" "x607082" "x60DD5F" "x611AE5" "x61CACB" "x63DABD" "x63FBF3" "x63FC5C" "x64E0B4" "x653B62" "x65E312" "x664323" "x666995" "x670613" "x671508" "x674C91" "x687C61" "x69C90F" "x6A0A2C" "x6A10E2" "x6C8005" "x6C8C52" "x6CF452" "x6D09CF" "x6D883B" "x6DFDD1" "x6E651A" "x6E8B4C" "x6EF14A" "x6F3AAF" "x7088D1" "x70AAAF" "x711438" "x738AFD" "x74B3F3" "x75646F" "x75CE92" "x768B68" "x76CD59" "x774BEA" "x77AD45" "x77FCF9" "x780F19" "x784FAC" "x795D42" "x7A8F60" "x7B567F" "x7BDC98" "x7D839E" "x7E9185" "x7EC219" "x7FD1C6" "x7FE760" "x804A90" "x81606B" "x827C30" "x83263B" "x83A2F7" "x83B2A7" "x83EC3F" "x841727" "x846BBD" "x84DAEF" "x852913" "x853C2D" "x85C5DE" "x862333" "x86384C" "x872652" "x87D0F6" "x88982E" "x893E23" "x89C9AC" "x89CEC2" "x8A0525" "x8A2D02" "x8B7E77" "x8B9B2E" "x8BC3A9" "x8C21F3" "x8D62E7" "x8D9E74" "x8DA2A3" "x8DCFDA" "x90BFEF" "x90EC1E" "x945793" "x94B02F" "x9540CC" "x95DD40" "x97F1DB" "x9860F4" "x999E9B" "x99E6CC" "x9A3053" "x9A43D9" "x9A96C1" "x9AEF89" "x9B5B04" "x9B707D" "x9BCBB0" "x9C09F4" "x9C275B" "x9C4123" "x9C4EBD" "x9D1421" "x9D30A0" "x9E2648" "xA01450" "xA0D447" "xA12143" "xA23EFD" "xA24464" "xA3CC82" "xA3DD6F" "xA4C072" "xA504BE" "xA595A4" "xA599DF" "xA5C52C" "xA697BD" "xA6B63F" "xA78118" "xA941A4" "xA968D6" "xA9C721" "xAA8177" "xAAC55E" "xAB945F" "xABA1A8" "xABC1F1" "xAD0C56" "xAD1122" "xAFE769" "xB175D9" "xB20AF0" "xB2B319" "xB34974" "xB3A699" "xB3D999" "xB44559" "xB55800" "xB6226D" "xB795CF" "xB8325D" "xB84CB1" "xB98D8C" "xB9E50C" "xBAD980" "xBB5D4E" "xBB7ED9" "xBB97D1" "xBBC5F1" "xBBF2BB" "xBC873D" "xBD2011" "xBD3E1F" "xBF338D" "xC087BC" "xC0A000" "xC0A02F" "xC0B693" "xC0C173" "xC0F62F" "xC132C8" "xC39EE7" "xC40501" "xC4F8BE" "xC50A34" "xC5762F" "xC6EB78" "xC7414D" "xC79097" "xC7AB8A" "xC826FD" "xC84186" "xC8510A" "xC8F21A" "xC9A9AB" "xCA984F" "xCB92D8" "xCBEFC9" "xCDAF46" "xCEC8BC" "xCF67BB" "xCFC60A" "xD02FBA" "xD080F5" "xD1AA6A" "xD1EAE5" "xD369B9" "xD3E426" "xD46521" "xD4AFEA" "xD5A5B1" "xD833D7" "xD9A050" "xDA096E" "xDA1E50" "xDA702A" "xDB515A" "xDB5BFC" "xDB73A1" "xDC970D" "xDCF8ED" "xDD172E" "xDDD8D9" "xDE374D" "xDE98A3" "xDE9E89" "xDFF28B" "xE01E2E" "xE02548" "xE040C0" "xE057F6" "xE06C22" "xE240D1" "xE33420" "xE3380D" "xE49B22" "xE52F87" "xE764C0" "xE77AF1" "xE7D0D3" "xE811D1" "xE85E08" "xE8D2D0" "xE973D5" "xE9756F" "xE97A12" "xE9AC75" "xE9B547" "xEDE38B" "xEE0358" "xEE19E4" "xEE83F2" "xEEF6B1" "xEF46B1" "xF0AD76" "xF0E9A1" "xF18B54" "xF216D7" "xF23E90" "xF7E225" "xFA6F59" "xFA7D25" "xFACE14" "xFBE9A2" "xFC10D7" "xFD4C5E" "xFD59A0" "xFDF070" "xFE866D" "xFEFB89" "xFF3644" "xFF5A75" "x008174" "x01A126" "x01B33D" "x023ABC" "x0366E9" "x06AB9D" "x06C47F" "x0756BB" "x08B4F9" "x09250F" "x097AEB" "x0A2CCF" "x0AE42E" "x0E7E33" "x111542" "x117695" "x129294" "x12E022" "x13A156" "x13D8B0" "x157AAD" "x166B44" "x167CB1" "x1757CC" "x17C895" "x19A2EE" "x1B24D4" "x1BA7C7" "x1BC323" "x1BD909" "x1D94AA" "x1DD882" "x1E17C5" "x1E1BE6" "x1E2C08" "x1E3ADC" "x1E566C" "x1EB5FE" "x1EF389" "x1F57F4" "x1FDE39" "x21A007" "x2322DE" "x233603" "x23E500" "x2570FC" "x25D8E1" "x280549" "x281860" "x2837F0" "x29BDC1" "x2A2319" "x2B3F4C" "x2CBF22" "x2ED2E9" "x2F09CB" "x2F5FF8" "x30F15C" "x3168F1" "x345017" "x34B4D3" "x364CB6" "x3A74FA" "x3B6C38" "x3BE1AF" "x3E129B" "x3FC72E" "x3FE00A" "x3FFB80" "x40B953" "x4356B6" "x43634B" "x43AD4A" "x44502C" "x4623FF" "x469FF1" "x46B1F4" "x4A2D69" "x4AD41C" "x4B1FA6" "x4C29E7" "x4D14A8" "x4E53E1" "x50237F" "x50DDCB" "x5291EB" "x53CD63" "x5410DE" "x55855F" "x58A79E" "x58FBF4" "x5ABBF5" "x5B2E01" "x5B8650" "x5BB079" "x5C25D6" "x5C699D" "x5D8481" "x5DDBF4" "x5ECE96" "x5FEE31" "x626C7D" "x64DF0C" "x673118" "x68EFDA" "x6A0632" "x6A28CE" "x6AE53A" "x6C59AC" "x6C7258" "x6D1B75" "x6DAD90" "x6DADA3" "x6EAFEC" "x6EFBD9" "x7270AC" "x739297" "x73F1E8" "x76118A" "x79210D" "x7A4B9B" "x7A8706" "x7B8E59" "x7F64BC" "x8015B3" "x802040" "x806080" "x80723E" "x8080A7" "x80E080" "x84BC34" "x84DE33" "x851792" "x85CEF2" "x85CF1D" "x871AA5" "x8A8277" "x8B891E" "x8BC79E" "x8BCFE8" "x8D5801" "x8DA75A" "x8E4372" "x8E8988" "x90CF2D" "x912B29" "x922237" "x926ECA" "x928EE3" "x94B087" "x94C9BB" "x95534B" "x9665E4" "x9705B3" "x97993B" "x97A74B" "x9ADD51" "x9D5A1E" "x9E315B" "x9E9910" "x9EEE00" "x9FF6E4" "xA0472D" "xA2BCAE" "xA2DABF" "xA31E5D" "xA6F8CB" "xAA4A52" "xAAC78F" "xABCAF9" "xAEB7C5" "xAF521A" "xB0AB9C" "xB25003" "xB38742" "xB44927" "xB6C4A3" "xB6E642" "xB7CBC8" "xB81CB1" "xBA20F5" "xBB4DAD" "xBBB0E5" "xBC5647" "xBCFF3B" "xBDD65B" "xBE898B" "xBF6B39" "xBFA383" "xC06000" "xC06080" "xC09F00" "xC0D10F" "xC0E080" "xC0F03C" "xC10E8D" "xC18671" "xC203B7" "xC2043B" "xC2BDC8" "xC6C382" "xC826E9" "xCA657A" "xCB3485" "xCBC288" "xCC9544" "xCDE235" "xCE1D48" "xCE6B2C" "xCEB3E5" "xCEDAE2" "xD0DF51" "xD1F86F" "xD2D3BE" "xD30931" "xD3CB06" "xD4F003" "xD55DCE" "xD72087" "xD9665F" "xD97C0E" "xD9C98F" "xDA9446" "xDCCC35" "xDD93B6" "xDF3AC1" "xE1280E" "xE1C4D9" "xE1DCD7" "xE2EA0F" "xE30338" "xE33A60" "xE35EDE" "xE3A0FD" "xE417CF" "xE4775E" "xE48FD5" "xE51C72" "xE555E3" "xE5E502" "xE6F6BC" "xE74ADB" "xE7C7CD" "xE7E32C" "xEA25BC" "xEBAFE0" "xEE8586" "xEEF418" "xEF4828" "xEF8B24" "xEFCA8A" "xF01C28" "xF06A31" "xF078C6" "xF083ED" "xF0A479" "xF1C0C8" "xF33D4E" "xF42C50" "xF45D51" "xF7519A" "xFAB5A6" "xFB2B8C" "xFC8479" "xFD269C" "xFF08D7" "x002497" "x006FF6" "x00A040" "x00F433" "x03240F" "x044B0B" "x04F2AC" "x0782F1" "x0791F2" "x08045E" "x09454B" "x09CCBB" "x0B8443" "x0C1436" "x0C2C81" "x0C5FF1" "x0C6FD7" "x0CDFEF" "x0DB4CA" "x0E6ED3" "x0E7E40" "x0F245D" "x12C464" "x131829" "x1328F8" "x13FC0F" "x1510B9" "x165B36" "x16B6ED" "x174627" "x180D7A" "x187C58" "x18F5EE" "x1A0E35" "x1C140F" "x1CA16D" "x1CA447" "x1E6E7B" "x1EE51C" "x21166D" "x21A006" "x2256CE" "x2275DF" "x24DF1C" "x253E84" "x2B9E9F" "x2C03AA" "x30C051" "x30DB4E" "x32CE68" "x3612F5" "x38D2B3" "x395554" "x39C944" "x3A6B83" "x3B6E83" "x3E3E84" "x3E8475" "x3EB341" "x3EC4D4" "x3F7017" "x40E000" "x40E52D" "x42F2E2" "x42F582" "x43B793" "x43ECF0" "x44CCA9" "x44EF6B" "x4503E6" "x45D044" "x464F48" "x4676BD" "x46B922" "x4992A9" "x4A8ED2" "x4C1D1A" "x4D0581" "x4EEC4B" "x4F4505" "x4FF4D0" "x521E7C" "x528228" "x542639" "x544568" "x54C371" "x553C99" "x555BAD" "x55E100" "x563D7F" "x56A6C4" "x57AFC4" "x590948" "x594F3C" "x5A1A92" "x5B4E49" "x5B87F0" "x5B8F90" "x5BE5BF" "x5CC4C6" "x5D7496" "x5E3093" "x5E806D" "x5F1F9D" "x5F7D84" "x5FC402" "x6137EA" "x6219BB" "x65F69E" "x67745A" "x68C879" "x6911E2" "x6A73E3" "x6B748E" "x6C06D8" "x6D49FC" "x6DE48C" "x6E8C90" "x6F9DBE" "x708B11" "x70D5D4" "x70F127" "x7122B4" "x71E534" "x75F292" "x76718F" "x78225B" "x788EF7" "x7A3E48" "x7A790A" "x7A8DC0" "x7A8FAA" "x7B9C23" "x7BCE24" "x7CE9E2" "x7EE88A" "x7F8573" "x8020C0" "x80A040" "x80D06A" "x813C7A" "x82D3D9" "x832EB1" "x8521AB" "x857DD7" "x85F1EA" "x85F6FB" "x86229F" "x86D18A" "x89C7F6" "x8A7316" "x8B9E21" "x8BE8B5" "x8C94F5" "x8E2E54" "x8F1029" "x9237CC" "x92E099" "x93CAEB" "x93F868" "x9455F5" "x956F56" "x9A54DD" "x9AB469" "x9B2805" "x9CB866" "x9D05EB" "x9E3DC0" "xA0231C" "xA03446" "xA182AB" "xA57384" "xA9C5C0" "xAA5D63" "xAB2CD1" "xAD40B0" "xAE76E5" "xB0F3C2" "xB1C965" "xB448A4" "xB4ABAC" "xB4CF1F" "xB5C055" "xB6B0DF" "xB7B9D2" "xB84746" "xB8AB1D" "xB8B41C" "xB8E561" "xB9B479" "xBA7439" "xBB5EA2" "xBE34C5" "xC02FED" "xC036EC" "xC0E000" "xC0EDB2" "xC2D264" "xC587CD" "xC61E9B" "xC80B9F" "xC8467F" "xC923B4" "xC9790E" "xC9870B" "xC99667" "xCA15A3" "xCA95EA" "xCB7964" "xCCA2C5" "xD0913B" "xD0D2B7" "xD1F715" "xD41B85" "xD48023" "xD4B179" "xD4D86F" "xD7CE04" "xD81024" "xD93231" "xDAB83F" "xDBBC41" "xDC2B47" "xDD60F3" "xE0A3A3" "xE0F215" "xE11EC4" "xE15693" "xE19213" "xE1CA38" "xE25D1F" "xE5081D" "xE58D80" "xE63FEA" "xE6B251" "xE6D78F" "xE7CB96" "xE7CF1B" "xE857DC" "xE9FE5B" "xEA8D91" "xEB9647" "xED0D09" "xEED579" "xEF1E85" "xF2AD8F" "xF2B4CE" "xF2DEBD" "xF3596D" "xF4A9F1" "xF5931B" "xF66D8E" "xF73080" "xF73FF8" "xF770E6" "xF779D9" "xF7AF04" "xF8510F" "xF88DC6" "xF91E7E" "xF9BB2E" "xFA5FA2" "xFA6F32" "xFB1B79" "xFCF1D9" "xFD8B0C" "xFF1988" "x002CA6" "x0044D7" "x0079C0" "x014651" "x041DE6" "x0468DF" "x04EC92" "x05137C" "x07684F" "x07A351" "x07B4A4" "x07ECF5" "x08DA68" "x096D1F" "x09BD9A" "x09C878" "x0A0AC6" "x0A10AF" "x0A9EF9" "x0AE4D2" "x0BB9B5" "x0BEA6E" "x0CDB57" "x0DADEF" "x0DBA60" "x0EFEB5" "x0FBE18" "x116717" "x12EBC2" "x1447B1" "x145F3E" "x14A33F" "x14AA5F" "x14B03B" "x15A49A" "x15AF5A" "x15FC1A" "x17C9D9" "x183A03" "x191F58" "x193697" "x194BA1" "x19EE3B" "x1A6735" "x1C7F21" "x1CAFEA" "x1DBE3C" "x1DF568" "x1E4E5A" "x1E8DE4" "x1F0BA5" "x20AD45" "x23AEA8" "x244229" "x24C2C1" "x24E698" "x251E32" "x26408B" "x26A0BA" "x26DABE" "x26E543" "x272F40" "x2754DF" "x27D464" "x28D00B" "x2B542B" "x2C272D" "x2C2868" "x2C889F" "x2CA985" "x2D2B9A" "x2D2C2D" "x2D5321" "x2D838F" "x2DF021" "x2E3941" "x2E6271" "x2E8F6D" "x2EB016" "x2ECDC8" "x2FB1A9" "x30D4A3" "x33A055" "x344699" "x3482E0" "x354974" "x362102" "x365975" "x377CB2" "x37B983" "x38AF9B" "x38C295" "x39101E" "x3A98AA" "x3AC631" "x3B8A74" "x3CC6B1" "x3D5DCB" "x3E2849" "x3E2CBF" "x3E9FAC" "x400644" "x403C43" "x408266" "x411A5C" "x4209BE" "x42B6C5" "x446EC5" "x44B13A" "x44D809" "x44EB95" "x44F2F1" "x4556CD" "x456EC5" "x45A693" "x47136C" "x47676B" "x48EFD3" "x4B6FB2" "x4B7FC1" "x4BE082" "x4BF0E8" "x4C1EFA" "x4DA9F6" "x4DE6D8" "x4E367B" "x4E7D04" "x4EC559" "x4F1D47" "x4F2C11" "x504A1A" "x50A90C" "x515DEB" "x518E76" "x51B1BE" "x5255B3" "x539071" "x53FD19" "x55129E" "x55143A" "x55A5A9" "x564C3E" "x5767AC" "x57A279" "x57B8A2" "x5817B5" "x58E3CC" "x5BD01E" "x5D50CD" "x5DB6E8" "x5E5525" "x61DCFE" "x6286E4" "x62AE36" "x6368B4" "x63735D" "x646CD4" "x65CD76" "x663178" "x69005D" "x69BF88" "x6A4CD7" "x6BCDD9" "x6C2D9C" "x6C5AD1" "x6D753E" "x6DF16B" "x6E2546" "x6E27AD" "x703870" "x714A14" "x728BA5" "x7290A1" "x7298A0" "x73210A" "x7626D3" "x763725" "x76372F" "x771F99" "x787004" "x788E5F" "x793A86" "x7C4BE7" "x7D3108" "x7DB318" "x7DF691" "x7E6D65" "x7EC254" "x7ED5E1" "x7EDEE5" "x81667A" "x8216B9" "x8253D3" "x833289" "x83B0C8" "x852CCE" "x857920" "x863E68" "x87C331" "x892013" "x898427" "x89A524" "x8A38CF" "x8B29AC" "x8B696A" "x8B7244" "x8C2B38" "x8C71ED" "x8D0001" "x8D5662" "x8D7E0A" "x8EEB71" "x8FCD85" "x902933" "x9095BA" "x90A9A1" "x90AF53" "x911E83" "x919662" "x93473A" "x944ED5" "x957643" "x980AB5" "x9B49E4" "x9CA01A" "x9CDEC7" "x9E9486" "x9E99FC" "x9F9A64" "xA00925" "xA037FA" "xA0D757" "xA13095" "xA13B9D" "xA1EEF9" "xA2542E" "xA378DB" "xA3F090" "xA43670" "xA43B5F" "xA5F977" "xA63A3F" "xA86F61" "xA8A09F" "xA8D5F5" "xA8E775" "xA9AFA9" "xAAEC04" "xABA3F4" "xAC9F19" "xAD0039" "xADA6D6" "xADC92C" "xAE0626" "xAF1060" "xAF1462" "xAF2C3D" "xB0556F" "xB11131" "xB16C7B" "xB2A8E6" "xB38A2C" "xB39C1B" "xB3B289" "xB3CC99" "xB41F04" "xB58175" "xB605A8" "xB641FB" "xB65BA2" "xB6D5BC" "xB8405D" "xB90C53" "xB9B72B" "xB9E827" "xB9FEC1" "xBB7546" "xBC77B1" "xBCDB8D" "xBEF70D" "xBF1B61" "xBFD8B9" "xBFEC14" "xC06F11" "xC08080" "xC0D262" "xC109EF" "xC1FE36" "xC3EC0A" "xC4080A" "xC52505" "xC666BD" "xC83863" "xC85043" "xC97FEC" "xCA438C" "xCB038A" "xCB16EC" "xCB7E23" "xCC1729" "xCE5EDE" "xCFA677" "xCFC665" "xD1F111" "xD1FE3A" "xD24E46" "xD31F1A" "xD363AD" "xD3D91D" "xD57951" "xD58B87" "xD62445" "xD6A5C9" "xD709EA" "xD7C839" "xD905FA" "xD9502D" "xD97D42" "xDA042C" "xDAE588" "xDAE598" "xDB1A94" "xDB7755" "xDC2F4C" "xDC9785" "xDD4100" "xDD4D82" "xDD8241" "xDE167C" "xDE80AC" "xDEF7F2" "xE0383C" "xE121DA" "xE13AB4" "xE1AF70" "xE24714" "xE280A6" "xE39786" "xE46B89" "xE4B798" "xE6C75B" "xE742CD" "xE7714E" "xE7C2E0" "xE7EF77" "xEC5C0F" "xEE94F4" "xEF10B4" "xEF3D84" "xF04641" "xF07B0D" "xF07F7B" "xF21F47" "xF2BAB1" "xF3CDF6" "xF47376" "xF54F0B" "xF62875" "xF678A1" "xF679C1" "xF70820" "xF73CFD" "xF8016C" "xF89626" "xF94B3B" "xF95E56" "xF965BE" "xF96BFF" "xF9820F" "xFA31E3" "xFA64B0" "xFA828A" "xFB2B85" "xFB9977" "xFBAF0C" "xFBEEDF" "xFC8CBC" "xFC9250" "xFD7E50" "xFD9177" "xFE60E4" "xFF4334" "xFF6D40" "xFF96CA" "x005214" "x0055C8" "x009230" "x00B5FE" "x00CA87" "x00CB4F" "x00CFFC" "x00E694" "x011D8E" "x014AED" "x01A277" "x01AA98" "x01AF19" "x026545" "x027B82" "x029C82" "x02B200" "x02E6CB" "x035885" "x03E19A" "x03ECD8" "x03FCE7" "x046404" "x04DFA3" "x057155" "x058CF1" "x05AA6F" "x05CB4A" "x0637FB" "x06A0A6" "x073E62" "x07715D" "x0778B2" "x078E35" "x07B539" "x0816E5" "x081A13" "x08C9B4" "x0905C3" "x090661" "x0A0C7F" "x0ABE32" "x0B52CC" "x0B8E3C" "x0CB3E1" "x0CE1F2" "x0D3C66" "x0D5469" "x0D8449" "x0DD95A" "x0DF3D0" "x0DF945" "x0E182E" "x0E2429" "x0E6170" "x0E7DAD" "x0E93DD" "x0E9E82" "x0F07F4" "x0F6242" "x1008DE" "x1009F9" "x1056D8" "x10E7AA" "x10EFBB" "x113AC0" "x11452B" "x11738E" "x12689B" "x12E5F5" "x12E8FE" "x12FA15" "x136789" "x13D13C" "x14AFD3" "x14F63B" "x15C30C" "x162CAF" "x1685DE" "x17EC12" "x185E5E" "x19041A" "x1914E1" "x19ACB1" "x19CD4D" "x1A2A12" "x1A8A26" "x1AE8B6" "x1B3F48" "x1B4506" "x1BBF8F" "x1BC4C7" "x1BE2B8" "x1C53E5" "x1C5610" "x1D0697" "x1D225E" "x1D8885" "x1DCAEE" "x1EA7D1" "x1EB7EE" "x1F18DF" "x1F7088" "x1FFA80" "x204AC6" "x206974" "x2079AC" "x208B8B" "x20B837" "x2138CB" "x219565" "x21A1C0" "x21CA39" "x223A83" "x22435F" "x226605" "x226691" "x227F30" "x22D799" "x232E7E" "x235E14" "x239F5A" "x23B825" "x23EE96" "x24067F" "x240E9A" "x24112B" "x2421BA" "x242A0C" "x254836" "x254F41" "x256215" "x2582E0" "x258AAB" "x259979" "x25A8B2" "x2644D7" "x26BAAE" "x26EED7" "x271A71" "x27A629" "x2846AA" "x284FA4" "x29876F" "x299979" "x29DDB4" "x2A0360" "x2A151B" "x2AB55B" "x2B0624" "x2BAB71" "x2BFECC" "x2C767A" "x2C78E8" "x2CDE25" "x2D1043" "x2D573B" "x2D686D" "x2D79EA" "x2D9047" "x2DBBA0" "x2E0BBD" "x2E476A" "x2F666A" "x300508" "x3016D1" "x30D503" "x30F15A" "x3201D8" "x322DCD" "x3282B9" "x3291B1" "x32B82A" "x32DB3C" "x32E75D" "x333AC9" "x3350A1" "x345296" "x346F8B" "x34CB16" "x34FF74" "x3501E6" "x3551DB" "x358288" "x35C7D1" "x366D53" "x36BD4A" "x36EA2F" "x36ECA4" "x374B03" "x37B84A" "x37BECF" "x37C3EE" "x37C680" "x37D4B1" "x383F3B" "x38F16B" "x393D35" "x3948DF" "x39AC3D" "x3A8170" "x3AE864" "x3AF891" "x3AFBC9" "x3B4B71" "x3B7B84" "x3B939C" "x3C8E27" "x3CB201" "x3CE2F9" "x3D3129" "x3D4D8C" "x3D4F28" "x3D5D3B" "x3D7276" "x3DEF01" "x3DF9E0" "x3E1814" "x3E6AA0" "x3E750B" "x3E7612" "x3E8295" "x3EAC51" "x3F4B00" "x3F6227" "x3F9742" "x3F9FBE" "x3FD2A8" "x3FD30A" "x407D24" "x408080" "x40B59D" "x40BA77" "x410163" "x416D9A" "x41835B" "x41917B" "x425A04" "x436C62" "x4372FB" "x437735" "x43B451" "x445F70" "x44E031" "x450FF6" "x45BAB8" "x4633F8" "x468DAD" "x4691BA" "x46EB7A" "x470705" "x472D89" "x477E47" "x47FDCD" "x4817B1" "x484616" "x4861C4" "x48767D" "x488964" "x494EC3" "x495E68" "x49B9FB" "x49C347" "x4A2034" "x4A8634" "x4A8909" "x4AA84D" "x4AB54D" "x4AC4D4" "x4ACDED" "x4BCA69" "x4C018D" "x4C6008" "x4CC20D" "x4D1EAF" "x4D2709" "x4D95F9" "x4D9A80" "x4DDA3D" "x4E2F01" "x4E674C" "x4E78A3" "x4E9439" "x4EAE5B" "x4EAFC7" "x4ED783" "x4F7471" "x4F7983" "x505BB6" "x50762C" "x50C673" "x50F35C" "x510116" "x51425F" "x51B3CA" "x51D035" "x52016B" "x520C14" "x522438" "x523ED6" "x528B4E" "x52BDC0" "x535C58" "x5398DF" "x53AAC9" "x53F0AF" "x540E5F" "x54B285" "x54BEDF" "x554954" "x5557EC" "x558232" "x558F00" "x55ADAA" "x5624C9" "x5659F6" "x56966E" "x56AF7D" "x56B8DB" "x56C9A4" "x5713DD" "x573633" "x577F99" "x578AC2" "x5819EC" "x585139" "x585B4B" "x587EFC" "x588224" "x58C57B" "x58F59B" "x594725" "x59AD8D" "x59C70D" "x5AA64D" "x5B081A" "x5B2F34" "x5C32CD" "x5C5892" "x5CC98C" "x5CD1D2" "x5CE095" "x5D2A9C" "x5D2C75" "x5D56D4" "x5D602D" "x5E1286" "x5E6636" "x5E859F" "x5E8D29" "x5EC098" "x5EE193" "x5F3000" "x5F648B" "x5FA439" "x6016CF" "x603F20" "x608B0E" "x60E2B4" "x60F1AD" "x610031" "x61214D" "x618906" "x618FF6" "x62B093" "x62D961" "x633FA1" "x6355F5" "x63683A" "x6379DE" "x63DE7D" "x647831" "x64E297" "x64EE03" "x6531C4" "x65B0F8" "x65FDD3" "x66275B" "x667DF1" "x688D88" "x68FDA2" "x690EB9" "x6922AC" "x6A2085" "x6A28AF" "x6A2BD7" "x6A8973" "x6B5D56" "x6B5E59" "x6B9FDB" "x6BFED5" "x6C152E" "x6C4D59" "x6C8F89" "x6CB0B1" "x6D0AE9" "x6D3984" "x6D9B56" "x6DE206" "x6E6199" "x6E9F87" "x6F0E90" "x6F33D6" "x70A72B" "x70A7FF" "x71436A" "x717A3D" "x71B746" "x71F55A" "x722C25" "x724F01" "x728576" "x72B9B8" "x736489" "x737047" "x738112" "x7499B4" "x751C31" "x7521AE" "x75BDA6" "x768B2E" "x7693FD" "x7696D2" "x76B3D9" "x76D135" "x777BA1" "x7780C7" "x778D38" "x77A0DD" "x77D24A" "x780B83" "x784F69" "x788EC2" "x78A1D2" "x78E933" "x796BFA" "x798105" "x79C8AB" "x79C9DB" "x79D30F" "x79E321" "x79E840" "x7AF89E" "x7B1623" "x7B181D" "x7B3152" "x7B5BB2" "x7BB962" "x7BD932" "x7C2149" "x7C25B3" "x7C565A" "x7C74C8" "x7CC710" "x7CE85C" "x7D04C6" "x7D138A" "x7D1B5D" "x7D35AE" "x7DC316" "x7DDB19" "x7EC635" "x7F3430" "x7F37CF" "x7F5EF4" "x7F93CF" "x7FD24C" "x804080" "x8095C2" "x810660" "x81785E" "x8233DB" "x82434C" "x825D0C" "x82A6CB" "x82A80D" "x82DF03" "x831E58" "x834E92" "x83FDA7" "x848203" "x84BCB9" "x84D7DF" "x851E9E" "x852347" "x854E98" "x855C8E" "x858E73" "x860FED" "x8624F3" "x86549B" "x86B2E1" "x86F626" "x874218" "x876F44" "x8791C7" "x87B394" "x889501" "x892CCB" "x893884" "x8972F0" "x89B421" "x8A2418" "x8A412A" "x8A5FBA" "x8A784C" "x8ABF58" "x8B391B" "x8B70E6" "x8B7F1C" "x8C4775" "x8C4FC7" "x8C9C17" "x8CBE46" "x8D1DC4" "x8D225E" "x8D7EF5" "x8DEF85" "x8E1E7D" "x8EDE5D" "x8F12E1" "x8F525C" "x901CEE" "x906EDB" "x909A53" "x90BF01" "x90E36C" "x917226" "x91B0CD" "x9205E3" "x926422" "x92ACA6" "x931981" "x93322F" "x93576A" "x93B3D3" "x93C603" "x940123" "x9413E5" "x94280F" "x94B00D" "x94B15E" "x9551A7" "x9567D6" "x9594B3" "x95A7EB" "x95D73D" "x95D84B" "x961200" "x96343E" "x96BB46" "x972E4F" "x976DE3" "x97A77C" "x97D23C" "x983660" "x98DBC4" "x9915BD" "x9934DD" "x9A24BB" "x9A4949" "x9AC39D" "x9AD3AF" "x9AD5E7" "x9B0B2C" "x9B110F" "x9B4BFA" "x9C3390" "x9C8F61" "x9C9A5D" "x9CD32D" "x9CE8E1" "x9D5806" "x9E0D5A" "x9E11F4" "x9E35AF" "x9E7F16" "x9E966C" "x9ED164" "x9F0DA7" "x9FB76B" "x9FEE00" "xA02DD0" "xA03F62" "xA06B72" "xA06D66" "xA0EA84" "xA11994" "xA25C71" "xA29F4B" "xA2BD8B" "xA302C2" "xA315AF" "xA37393" "xA416F8" "xA43184" "xA433B7" "xA4452D" "xA4A344" "xA4BEEB" "xA4CD12" "xA4DF89" "xA5324C" "xA59B1E" "xA5D85B" "xA63D9C" "xA68B7D" "xA6AC1C" "xA72AE8" "xA75795" "xA7D068" "xA81DE0" "xA91E39" "xA94B66" "xAA2BAF" "xAA5132" "xAA74F7" "xAAA617" "xAABE23" "xAAE708" "xAB238B" "xAB4717" "xAB4D46" "xAB74B6" "xABCC23" "xABEC49" "xABF0CE" "xABFDB2" "xAC3896" "xAC5697" "xACBDDD" "xACD40B" "xAE42BF" "xAE7346" "xAF1645" "xAF1953" "xAF2AAB" "xAF3111" "xAF3468" "xAF7CB2" "xAF96DE" "xB028D0" "xB05DCB" "xB12C35" "xB1309D" "xB132EB" "xB1834F" "xB2115C" "xB256A8" "xB2FA61" "xB37131" "xB385F0" "xB39CB0" "xB39E38" "xB3BB9D" "xB3F302" "xB3FB40" "xB48CBD" "xB5CCF6" "xB61161" "xB639A1" "xB65AAD" "xB697D5" "xB69A28" "xB6E6C8" "xB72721" "xB7779C" "xB77EFD" "xB78583" "xB7D482" "xB85EE6" "xB8CF8D" "xB8D93D" "xB9232D" "xB94393" "xB96123" "xBA833F" "xBAA129" "xBAA2A6" "xBAAC99" "xBACD75" "xBB13C7" "xBB1ECB" "xBB8667" "xBB9BAB" "xBB9E3E" "xBBAC52" "xBBE264" "xBC3539" "xBCC9CD" "xBD440E" "xBD4F2E" "xBD7571" "xBDE9AC" "xBDF0C2" "xBDFD1C" "xBE0153" "xBE6D06" "xBF0816" "xBF2BC1" "xBF6BE6" "xC0304F" "xC116CE" "xC2A5FC" "xC3063A" "xC32DDA" "xC3CB29" "xC3E035" "xC4234B" "xC45462" "xC4F5FA" "xC54CD1" "xC56CA8" "xC5B395" "xC5E66D" "xC5E87B" "xC62BFF" "xC6496C" "xC6CC13" "xC709A4" "xC70CB2" "xC71031" "xC74F2C" "xC76EF8" "xC7BF91" "xC80FB5" "xC80FDB" "xC89CAB" "xC8DC81" "xC923DE" "xC98C65" "xC9D432" "xC9E20D" "xCAF98A" "xCB1904" "xCB2140" "xCB93D4" "xCBFEE7" "xCC25A7" "xCC545C" "xCC60F8" "xCC6417" "xCC6858" "xCC84AB" "xCCC13D" "xCCC35F" "xCD0400" "xCD0B91" "xCE6B45" "xCE825B" "xCEC0B5" "xCECD5D" "xCF8207" "xCF83A1" "xCF8F95" "xCFE898" "xD00492" "xD067D6" "xD0E463" "xD12A5F" "xD19813" "xD1C7B5" "xD1D6C4" "xD1EA3A" "xD272AB" "xD2B881" "xD32034" "xD39342" "xD3A143" "xD4118F" "xD41A86" "xD49585" "xD4DCFC" "xD4E2FE" "xD532DC" "xD5495F" "xD59699" "xD5C5A4" "xD5E6FC" "xD5F340" "xD60C75" "xD61479" "xD622EF" "xD65862" "xD67E77" "xD6FC5B" "xD7E2C6" "xD7FB82" "xD8002F" "xD8A6B7" "xD974F7" "xD98027" "xD98990" "xDA30A7" "xDA9366" "xDB208A" "xDB4FE7" "xDBF36A" "xDCCD87" "xDD4D52" "xDD5B40" "xDD6AE1" "xDD7CB9" "xDD9819" "xDDBF87" "xDE0673" "xDE0FBF" "xDE1C89" "xDF74B7" "xDFE8E9" "xE00214" "xE01600" "xE03267" "xE032FA" "xE0AF0C" "xE0EB27" "xE0EDAA" "xE12B59" "xE17BE0" "xE217FD" "xE22F1A" "xE2534C" "xE28092" "xE295EA" "xE2AF92" "xE2F068" "xE38D6E" "xE43828" "xE4791D" "xE4C132" "xE51BA2" "xE5E38C" "xE60A3B" "xE782F2" "xE7DC8B" "xE81E5D" "xE8268A" "xE8585C" "xE9656F" "xE96C69" "xE9C10C" "xE9E2AC" "xE9E81E" "xE9EF51" "xEA004F" "xEAE7A4" "xEB4FCC" "xEB513F" "xEB64F7" "xEB8F89" "xEB9059" "xEB96BA" "xEBB528" "xEBE1FE" "xEC21B8" "xEC3D8A" "xEC506D" "xECF410" "xED4681" "xED5157" "xED8ED2" "xEDE570" "xEE42D9" "xEE5E04" "xEEB402" "xEEFECF" "xEF21E0" "xEF9A47" "xEFC0F2" "xEFF801" "xF016BD" "xF05721" "xF0D465" "xF10F92" "xF1F237" "xF25CBF" "xF29876" "xF3170E" "xF328B4" "xF35CB4" "xF37F3B" "xF3AC9A" "xF3BFFA" "xF3EDBB" "xF413EE" "xF4585F" "xF4A871" "xF50615" "xF58686" "xF5DCDF" "xF5F0C8" "xF62BD3" "xF6DD0A" "xF6E8CA" "xF7B0B5" "xF834FC" "xF89214" "xF8A3CD" "xF8A520" "xF8F212" "xF8F9BC" "xF91DC6" "xF92016" "xFA14A4" "xFA1F26" "xFA33DC" "xFBBC8F" "xFBF624" "xFC0EF0" "xFC5474" "xFCBAB7" "xFD0127" "xFD5F4E" "xFD6002" "xFD72C9" "xFDB015" "xFDEB78" "xFE293E" "xFE2AB9" "xFE8024" "xFEA4FB" "xFEE697" "xFF626A" "x000EC0" "x00150B" "x0020CB" "x003D10" "x00684B" "x014B3F" "x01B1E4" "x01B54E" "x01D0B8" "x020839" "x025750" "x0274BA" "x02B1B4" "x02EA6D" "x02F25C" "x0365B1" "x039447" "x03A3F2" "x03E90C" "x045D36" "x048659" "x048CDF" "x04E4D2" "x04FAA6" "x051790" "x051F32" "x0561E5" "x059F5E" "x05C63C" "x05C757" "x05CE22" "x0657F4" "x0665A7" "x069300" "x0695E8" "x076948" "x079D69" "x07C96A" "x07CD51" "x081414" "x0829BC" "x084C64" "x08CFCE" "x08D2D6" "x09098A" "x0922D2" "x09249B" "x097315" "x09FA5C" "x0A7566" "x0A9CF3" "x0AD9CC" "x0B1F9F" "x0B39F5" "x0B75A6" "x0BA388" "x0BAC2D" "x0BD7B1" "x0C3BE5" "x0CB226" "x0CB925" "x0D010B" "x0D2EC0" "x0D41EF" "x0D4483" "x0DFF69" "x0E3D6D" "x0F4E06" "x0FA1E3" "x102D34" "x105609" "x1063F3" "x10D98F" "x117789" "x11D353" "x120408" "x123B01" "x128B6A" "x12E2BE" "x1304A9" "x1315CF" "x13448F" "x134A15" "x134A47" "x1395CF" "x139851" "x13A3F7" "x13EB95" "x141E8E" "x144D66" "x147220" "x147F8C" "x149149" "x149D0B" "x14EC3C" "x152692" "x155CC7" "x156DBE" "x158D3A" "x15BB4F" "x16081B" "x161E18" "x1650B2" "x16A502" "x16B917" "x16E611" "x176387" "x1767C4" "x1770A6" "x177E5D" "x17E176" "x17F7C7" "x1825D5" "x184CF3" "x1870C8" "x18D607" "x18FE6F" "x194628" "x1997E8" "x19AE2E" "x1A08A5" "x1A3F4A" "x1A8BDA" "x1B29A0" "x1BA014" "x1BCEF6" "x1C0E3A" "x1C2526" "x1C3480" "x1C7EA9" "x1C8DCE" "x1D0897" "x1D136D" "x1D745A" "x1D9A87" "x1E4E7C" "x1E703F" "x1E90CB" "x1EC8FC" "x1F0416" "x1F2C8D" "x1F8086" "x1F88D4" "x201AEE" "x20438A" "x2054C5" "x205C90" "x2074F9" "x209617" "x20B36F" "x20B961" "x210EFF" "x213D4F" "x214295" "x2176EA" "x219B09" "x225230" "x2301B5" "x230500" "x2370BF" "x2398F2" "x23D587" "x23DF1E" "x240567" "x244BDB" "x246BA0" "x24B053" "x24BB62" "x24C25F" "x24DF76" "x251F98" "x252A47" "x253FA3" "x25E88B" "x262DBA" "x27097C" "x273ACD" "x27F0CF" "x281692" "x28228B" "x284654" "x28941F" "x28A4C4" "x28C8CD" "x293FD0" "x299EE5" "x29A606" "x29AC5E" "x29DE06" "x29ED74" "x29EDE0" "x29FAEF" "x2A11BE" "x2AE755" "x2AE9D6" "x2AFDCF" "x2B0A7D" "x2B377B" "x2B6577" "x2B707C" "x2BB631" "x2BCCD5" "x2BE42E" "x2C9D0D" "x2CA04D" "x2CBC17" "x2D0E85" "x2D37BA" "x2D89CE" "x2DC264" "x2DD7B4" "x2E1DD5" "x2E4E07" "x2E95BC" "x2F5BB2" "x303ED0" "x30737E" "x30BC22" "x30E58E" "x31047F" "x315BC6" "x317A7D" "x31D26E" "x31E827" "x31FC79" "x32068B" "x3230E6" "x325EC4" "x326C03" "x32AAA3" "x32DCA9" "x330AFA" "x336F55" "x33EEDF" "x3441EE" "x345A68" "x350E3C" "x352268" "x354EF1" "x356824" "x35EE2B" "x361ECD" "x366695" "x3693D6" "x369AAE" "x372FF6" "x378A03" "x383CBD" "x387E90" "x38BA37" "x38C8CE" "x38CE28" "x38D086" "x38ED3F" "x390D18" "x394E70" "x3A066D" "x3A542B" "x3A62B7" "x3ADB00" "x3AED96" "x3B871A" "x3BFC3E" "x3C4056" "x3D16AD" "x3E101E" "x3E7BBE" "x3E8D6F" "x3EB32E" "x3EBA6C" "x3EC1D5" "x3EDA5E" "x3EEE4F" "x3F6399" "x3F92E3" "x3FAD19" "x3FE8F9" "x4077D3" "x409145" "x40FD0B" "x40FD62" "x414767" "x4159A8" "x420973" "x423A3C" "x428AF3" "x42D933" "x43052F" "x4324CA" "x4389E1" "x439617" "x43EF0F" "x43FC63" "x449075" "x44938C" "x44B97A" "x44BB63" "x44BDE0" "x44EB96" "x450D66" "x452A17" "x453196" "x4577E6" "x459C13" "x45A1A5" "x45D5E4" "x46174B" "x468895" "x4702EC" "x47AC1C" "x47B4F4" "x47FF7E" "x483C9E" "x4847F1" "x484D74" "x48B003" "x48E7BF" "x4994E3" "x499956" "x49B677" "x49DA2B" "x4A1D5D" "x4A7357" "x4A97B1" "x4AB399" "x4AC96F" "x4B20FD" "x4B3B73" "x4B6E15" "x4BFF28" "x4C0F14" "x4CA28B" "x4CD582" "x4D34F4" "x4D7F05" "x4D869B" "x4D8F7B" "x4DAC2B" "x4E1C53" "x4E1F08" "x4EA4FA" "x4EE10D" "x4F294C" "x4F37ED" "x4FF0CD" "x4FF341" "x4FFA55" "x5072CF" "x508633" "x50E0B3" "x50EE73" "x51066D" "x512A96" "x515F6D" "x521A2B" "x526C79" "x52A1F4" "x52CCD4" "x52E812" "x534C6C" "x538E1E" "x53AE16" "x53E8E1" "x54204B" "x547339" "x548542" "x54D127" "x5531D2" "x55C8BE" "x55D35B" "x55F577" "x563573" "x5635F0" "x56B22A" "x56EF36" "x57BBEA" "x57C2A7" "x57CD2A" "x57E690" "x57ED04" "x581AD2" "x583D16" "x585BF5" "x58EFA8" "x59068D" "x595269" "x596AB7" "x597E64" "x598624" "x599D22" "x59B5A5" "x59D654" "x59F52B" "x59FCB1" "x5A4DDE" "x5A706A" "x5A9EF3" "x5AA879" "x5AD1CB" "x5AEFE3" "x5B3469" "x5B37CA" "x5B4077" "x5B9B29" "x5BA815" "x5BAEBD" "x5BAFDC" "x5BEA85" "x5C657B" "x5C9235" "x5C9D82" "x5CAFED" "x5CE754" "x5CE953" "x5D3D51" "x5D6554" "x5D892B" "x5E029F" "x5E60C2" "x5E79DF" "x5F481E" "x5F640C" "x5F7F75" "x5FB961" "x5FC494" "x6015F9" "x601FD2" "x609A10" "x61A22C" "x62B6F9" "x62BD94" "x62EF0D" "x62F2C5" "x6329E1" "x638100" "x63872B" "x63E1C9" "x645B83" "x647648" "x65456F" "x659004" "x66526E" "x667BEA" "x66C03A" "x66F552" "x67767A" "x6797A2" "x67BB39" "x683862" "x6900D7" "x691878" "x693BF1" "x69730E" "x6A2231" "x6A8E0B" "x6AB427" "x6AFCEE" "x6B3184" "x6BA627" "x6BCDC6" "x6BE7C8" "x6C5F10" "x6C8722" "x6D10B9" "x6DB6B1" "x6DC177" "x6E6202" "x6F0829" "x6F28EA" "x6F3383" "x6F8930" "x6FF061" "x700D0D" "x7058A8" "x7079D1" "x70C845" "x7183D3" "x719D56" "x71A0CD" "x71B938" "x71F363" "x721B68" "x72344D" "x723626" "x724272" "x724504" "x728DA4" "x73292C" "x7335F4" "x735661" "x736EEA" "x73D9B6" "x73ECE8" "x7433CB" "x743DC4" "x744E31" "x74993A" "x7504D8" "x754B6E" "x759E1F" "x75A26E" "x76ADA7" "x76CBA0" "x770BF2" "x772DE3" "x7751CA" "x776735" "x77E9CF" "x787BBB" "x7885BB" "x78A25B" "x79014F" "x79A4B0" "x79DE3A" "x79E8F9" "x7A154B" "x7A369E" "x7A3B01" "x7A3BDC" "x7A6D1D" "x7A7DB4" "x7A7F0E" "x7AA1BE" "x7AEC68" "x7B2628" "x7B5176" "x7B7143" "x7BB335" "x7BBA4B" "x7BDB7C" "x7C0069" "x7C3410" "x7C6AE3" "x7C7A41" "x7CA0AC" "x7CA2CC" "x7CDAEB" "x7D2E23" "x7DF3C2" "x7E2A07" "x7E3B11" "x7E9CDC" "x7EDB82" "x7EDC3D" "x7EF6ED" "x7F3778" "x7F3B2A" "x7F647A" "x803359" "x803416" "x8052D4" "x807FB7" "x808907" "x808B9A" "x810378" "x811307" "x81445F" "x82079F" "x82B862" "x82C386" "x82EE4E" "x8304B1" "x834C0B" "x835FB9" "x8375B9" "x83EB49" "x83F120" "x844B65" "x84F4DF" "x84FAA6" "x85E45B" "x861A2B" "x862EC9" "x865D83" "x86892B" "x86C5F8" "x871F81" "x875A6E" "x8788F2" "x87A3C2" "x87B6F9" "x87C93A" "x887034" "x88B2C0" "x898679" "x89BAB7" "x89C067" "x89E758" "x8A9401" "x8B151A" "x8B1584" "x8B9532" "x8B9A07" "x8C0430" "x8C26BD" "x8C5744" "x8CB2E7" "x8CF429" "x8D7ED7" "x8DBBD4" "x8DBCCF" "x8DE06D" "x8DEB1F" "x8DFDBD" "x8E6408" "x8E6B58" "x8EB4D8" "x8EB5E0" "x8ED295" "x8EDB2A" "x8EF665" "x8F0CEB" "x8FB8CD" "x90094C" "x902D34" "x9065F6" "x909060" "x90DD1D" "x91A719" "x91BBC2" "x91DDB6" "x920E6C" "x922575" "x9237FD" "x92550C" "x9285C7" "x92E331" "x9305DD" "x937CDA" "x9410AE" "x943750" "x94F0FE" "x95157C" "x9544A7" "x95B4E6" "x962507" "x96B25E" "x97182B" "x97463D" "x976D8B" "x977BF7" "x979A52" "x97A316" "x97AAC9" "x97CEC8" "x98294F" "x9855CA" "x987E4C" "x98A1D1" "x98C8C7" "x98D35C" "x98FEC3" "x994148" "x995CE0" "x9A1755" "x9A1834" "x9A97FF" "x9ABA13" "x9AC48B" "x9B5562" "x9B7483" "x9BCC62" "x9BD803" "x9C1398" "x9C5E1F" "x9C9A7C" "x9C9BFB" "x9C9CB2" "x9CB345" "x9CC6A6" "x9CF345" "x9D053D" "x9D190A" "x9D386E" "x9DECC3" "x9E3E04" "x9E9A42" "x9F46DF" "x9FA1BC" "x9FC3B0" "xA0447F" "xA063E3" "xA0816F" "xA0C2BF" "xA0C61A" "xA0CC88" "xA0D363" "xA10641" "xA116F0" "xA150BA" "xA151C9" "xA17BEC" "xA290A7" "xA2A22C" "xA34A24" "xA3BE73" "xA3CD40" "xA415E8" "xA45531" "xA48CDD" "xA4BD38" "xA4C22C" "xA4E315" "xA4FE33" "xA53899" "xA551DD" "xA56F3F" "xA5C17E" "xA5DA35" "xA5E93E" "xA60644" "xA6AAC4" "xA6B456" "xA6D21B" "xA70EE6" "xA71DAE" "xA748D7" "xA77CD4" "xA7F5FA" "xA874E1" "xA8761F" "xA8C727" "xA8C8E6" "xA8D5EA" "xA90919" "xA930B6" "xA9B6BC" "xA9F85A" "xAA2596" "xAA27F5" "xAB40BD" "xAB8C64" "xAB9139" "xABE62B" "xABE819" "xAC0A3D" "xAC4BA1" "xAC4C0E" "xACD78F" "xAD0330" "xAD0BA2" "xAD2362" "xAD37E5" "xADB26B" "xAEDF7A" "xAF0637" "xAF4B66" "xAF5847" "xAFB041" "xAFB314" "xAFCB42" "xAFD354" "xB050B6" "xB09521" "xB0A60F" "xB0F65B" "xB11019" "xB129AA" "xB14D77" "xB1AAE7" "xB1B9EC" "xB2776C" "xB27942" "xB28818" "xB2B547" "xB2DCB2" "xB326D4" "xB33958" "xB37F05" "xB3A64E" "xB3E66C" "xB412B9" "xB554B7" "xB574F2" "xB588AE" "xB599A4" "xB5B8B5" "xB5EFD2" "xB658AC" "xB681BF" "xB69219" "xB6D96A" "xB71384" "xB74FB2" "xB7533B" "xB76543" "xB7E39B" "xB80CCB" "xB8205A" "xB8588E" "xB85BA1" "xB87BE1" "xB9072A" "xB92B2A" "xB92D20" "xB942CD" "xB9630A" "xB9B933" "xB9F7C2" "xBA0A83" "xBA461D" "xBA596D" "xBA7ECF" "xBA8AC9" "xBAEB0F" "xBAEE96" "xBB08AE" "xBB1DC6" "xBB1FD8" "xBB7644" "xBB9A0F" "xBBA963" "xBBAFF0" "xBBDCD7" "xBBDD81" "xBC258A" "xBC494A" "xBC747A" "xBC7BBC" "xBCCC4A" "xBD565B" "xBD5A94" "xBD856D" "xBD928D" "xBE03D9" "xBE39FC" "xBE3C13" "xBE5BA3" "xBE808D" "xBECF32" "xBEDE94" "xBEE1A7" "xBF6BE7" "xBFD688" "xC02038" "xC04080" "xC0CFFB" "xC1334B" "xC1B54F" "xC1CC9E" "xC2C4E7" "xC2D067" "xC30EBF" "xC32B73" "xC33C6C" "xC38223" "xC3F529" "xC43290" "xC44667" "xC46499" "xC5290D" "xC563DC" "xC5A41C" "xC5BFD8" "xC5F8ED" "xC6EFFB" "xC724BB" "xC7269C" "xC73B88" "xC7A430" "xC7A6EE" "xC7C44A" "xC859B3" "xC8698D" "xC92FD7" "xC93F6C" "xC98D90" "xC98F3A" "xC9E49C" "xCA4CF3" "xCA849F" "xCAA831" "xCAC31F" "xCB1DDB" "xCB320A" "xCB8541" "xCBAFA5" "xCBB064" "xCBB6FE" "xCBC2A9" "xCC0903" "xCC2916" "xCC5625" "xCC7056" "xCC800D" "xCCD14B" "xCD1A61" "xCD526C" "xCD9A92" "xCD9C82" "xCDC38F" "xCDC856" "xCDD142" "xCDD6B3" "xCE7525" "xCF5004" "xCFE4B6" "xD07CB8" "xD0FCE8" "xD1A412" "xD205C1" "xD21C15" "xD226F2" "xD2391C" "xD24F76" "xD26E62" "xD2AD4C" "xD2D554" "xD2ECA0" "xD30909" "xD35265" "xD39522" "xD3F241" "xD4197B" "xD45F96" "xD4DE95" "xD4E837" "xD55E8D" "xD590EF" "xD5FB6D" "xD64E0F" "xD68439" "xD6B890" "xD6D15C" "xD6D613" "xD769A1" "xD79E7B" "xD7C79A" "xD8A8DF" "xD97708" "xD989BF" "xD9D840" "xDA19D1" "xDA37AE" "xDA49E0" "xDAA9F0" "xDAD8E2" "xDB42AA" "xDB8E0E" "xDBB0CD" "xDC9676" "xDCB0F4" "xDCF7D4" "xDD80DE" "xDDBDB3" "xDDCE1D" "xDDDFD1" "xDE269D" "xDE4226" "xDE64D9" "xDEAC95" "xDEAEB8" "xDEF595" "xDF38A6" "xDFAFEB" "xDFE54A" "xE0099C" "xE032F8" "xE0374B" "xE04ABF" "xE12D96" "xE12FF8" "xE1303F" "xE1636C" "xE1876A" "xE1A2B1" "xE1CE5E" "xE21051" "xE27FAC" "xE2B4B9" "xE2CBF6" "xE3D97E" "xE406FA" "xE42D32" "xE43B22" "xE4547A" "xE4F6F8" "xE51C30" "xE5889B" "xE5B1B1" "xE5C8C4" "xE5F662" "xE5F901" "xE60E1B" "xE67571" "xE67A87" "xE68782" "xE6A9A8" "xE6FB0B" "xE70367" "xE74D11" "xE7837C" "xE7ABE7" "xE7BB54" "xE7DD40" "xE83180" "xE86172" "xE8826A" "xE888BE" "xE8A8E7" "xE8C6CA" "xE8F996" "xE94866" "xE959D8" "xE9B493" "xE9C940" "xE9F823" "xEB4799" "xEB9C26" "xEC1A36" "xECE3CA" "xED0CC0" "xED2DB8" "xED747D" "xEDD574" "xEDD8EA" "xEDFADF" "xEE3F9A" "xEEA62C" "xEEC8C2" "xEECBDF" "xEEEC84" "xEF0110" "xEF0BBF" "xEF4ABA" "xEF83F8" "xEFA6ED" "xEFF48F" "xF00278" "xF00FC2" "xF01B58" "xF03696" "xF045C3" "xF0E48E" "xF0E62B" "xF10A5A" "xF11B46" "xF13D6A" "xF15F50" "xF2577B" "xF2B775" "xF3A5F1" "xF3B000" "xF4065F" "xF4BA84" "xF508EB" "xF53F21" "xF5578E" "xF5E251" "xF639B8" "xF641BD" "xF64EE0" "xF6543C" "xF6638C" "xF68AD7" "xF6DEB6" "xF73AA8" "xF82903" "xF8B109" "xF8FACA" "xF92145" "xF9F7D6" "xFA3B63" "xFAB5BD" "xFAB5D7" "xFAE311" "xFB0CCA" "xFB1B37" "xFB1CA9" "xFC2928" "xFC8F38" "xFCB36B" "xFCB424" "xFCD854" "xFD17A8" "xFD522E" "xFD5AEB" "xFDE2CE" "xFF11A5" "xFF12F7" "xFF223A" "xFF60AC" "xFFA16B" "xFFE780" "xFFF31D" "x169E2D" "xE55147" "x0030C0" "x00A88F" "x00B040" "x00B0C0" "x013AEB" "x0289AA" "x03FDD9" "x049490" "x04CD6D" "x059C90" "x08F331" "x0B77C3" "x0D192D" "x0DA281" "x0E125F" "x10CA7B" "x10D832" "x1120AB" "x18EC9C" "x18F9D5" "x1AC45E" "x1B9E2A" "x1BB9FA" "x1C3B80" "x1DCED1" "x1DDB1A" "x1E553B" "x1E9A0F" "x212F2F" "x224C75" "x22F5CE" "x24C127" "x25D807" "x27C614" "x27D689" "x2C37DD" "x2C9BF6" "x2CBC3B" "x2D8E7D" "x2DA551" "x2E8063" "x2FA254" "x317E88" "x33031A" "x3751A7" "x39DB21" "x3B9D9E" "x3CA5A6" "x3DAE0A" "x3F2F5D" "x402088" "x4439A4" "x44F322" "x46137E" "x48FB7B" "x4E19F4" "x56A8B5" "x58AF61" "x5B5F82" "x5C6475" "x5C6FF5" "x5C7EA4" "x5C9120" "x5D3843" "x601A4F" "x607C83" "x6125F7" "x61EACC" "x6363AC" "x6958D6" "x6BB536" "x6E8169" "x6FD534" "x6FF4CE" "x71ACC7" "x760779" "x798ACD" "x7DCECB" "x7E7CB0" "x80287B" "x803040" "x80B040" "x80B0C0" "x824F92" "x849B8F" "x860F5A" "x86122A" "x869D5F" "x871357" "x89CD8D" "x89E3C9" "x8B5EC8" "x8BFDCC" "x8CDEAE" "x8EBCC7" "x907490" "x90B38D" "x90CE2B" "x91A02C" "x94A617" "x94E465" "x951736" "x9632BE" "x973B1C" "x99A404" "x99A694" "x99A780" "x9D5716" "xA33609" "xA3A810" "xA55E5C" "xA66212" "xA909D2" "xAAFB06" "xAFBF37" "xB0D689" "xB114A9" "xB16A3C" "xB2484A" "xB47B14" "xB7EAE9" "xB8F19A" "xB9118E" "xBB8A78" "xBD7887" "xC32E10" "xC369DB" "xC6EE8B" "xC7ED1C" "xC82BB4" "xC9D330" "xD08070" "xD0FCF0" "xD15251" "xD19D8F" "xD206BC" "xD22E00" "xD4536D" "xD4BE3A" "xDB3E39" "xDB68A7" "xDE7B44" "xE222E2" "xE3F481" "xE567C9" "xE6C09D" "xE99673" "xEB7B97" "xEC7601" "xED08F5" "xEDA6C0" "xEE1B8C" "xF0BA2E" "xFAB703" "xFB5451" "xFD0D62" "xFDD38C" "xFE0821" "xFE4703" "x005C93" "x00D336" "x012DC1" "x0D95C2" "x0DF43E" "x10C000" "x163861" "x1741A2" "x187093" "x1B4789" "x1BAC1A" "x227FEB" "x25439E" "x2736CD" "x2A9CAC" "x2D6DBC" "x374A87" "x3F791B" "x455838" "x4736B3" "x47F30A" "x48E8C5" "x4934EE" "x4C4586" "x5AD9C0" "x5BE036" "x5CC000" "x60609D" "x68B95E" "x6CF688" "x6D645C" "x780763" "x7C1958" "x7C7251" "x7D25E6" "x7DE699" "x7F60DB" "x80BCA8" "x80FCE4" "x832FF7" "x84491D" "x8A5945" "x8B11E1" "x8B17C5" "x8F30EA" "x91EF0D" "x992C09" "x9FF17F" "xA4D6D1" "xA72957" "xA7D253" "xA8DB62" "xAEE311" "xAEE5AB" "xAF4B58" "xB2CC01" "xB2D968" "xB312C1" "xB6ED0A" "xB8C75E" "xBB2109" "xBB8631" "xC351DC" "xCA0467" "xCC1818" "xCCDB4C" "xCF2942" "xD3B4EB" "xD66C7A" "xDBA111" "xE076DB" "xE15291" "xE3A018" "xEAB9B1" "xEC5DC5" "xEDCBF4" "xEF5007" "xF0C923" "xF13FC2" "xF1B928" "xF3223E" "x022AE2" "x0340EA" "x078B25" "x093F42" "x104080" "x1546DA" "x177225" "x1A06C1" "x1A5AE7" "x1B31B7" "x1BDEB7" "x2392B7" "x2838B0" "x2E93C4" "x2F5740" "x2FD5DD" "x34B00A" "x39AEE1" "x3B1B46" "x40437B" "x428B93" "x44CC50" "x48A4E7" "x4DA90F" "x4FDFA6" "x52AD57" "x557C77" "x585CA2" "x5B065E" "x5BB5D7" "x6685A7" "x67A8BE" "x6F049A" "x7629AB" "x77EF15" "x780DE4" "x8737CC" "x8755F3" "x894997" "x8C162F" "x8C8183" "x8F17E5" "x900E30" "x90C000" "x911882" "x949C3F" "xA13A4D" "xA615B6" "xA721D9" "xA8531A" "xAB6EDB" "xABB8E6" "xB03D4F" "xB3DEA9" "xBB6368" "xBF471B" "xC28CA0" "xC6C267" "xC79CD0" "xC94B0F" "xC96399" "xC98675" "xCAFA82" "xCE729F" "xD08000" "xD29C90" "xD331E1" "xDCBAE1" "xE5287A" "xE857ED" "xE8DCD0" "xF259D7" "xF31ACC" "xF38C8A" "xF88E91" "xF9F480" "xFDBD34" "x00E2A7" "x0957D1" "x0B1E97" "x0DAC3E" "x0E8A94" "x168663" "x17660E" "x17E6C3" "x1B611D" "x23E585" "x256AEE" "x2DF849" "x2EE19C" "x3385DD" "x37B6CF" "x38BB61" "x3CC82C" "x3CD2D7" "x4025EE" "x40B080" "x418B71" "x46C455" "x4BBEE7" "x504080" "x50DED9" "x53F9F0" "x5967A1" "x59E5C4" "x5DA018" "x5E769A" "x650434" "x67B298" "x74C317" "x79844B" "x7C809B" "x7D2451" "x7EA360" "x808AB5" "x810C1A" "x84CE0F" "x851687" "x8A526A" "x8C6FA5" "x90EA7D" "x92D597" "x940839" "x9660D3" "x99C48C" "x9C0FED" "x9C15D3" "xA156C7" "xA84AFD" "xA858F4" "xAA2075" "xAE2568" "xAE76ED" "xB0BB90" "xB566BA" "xB636E0" "xB6EC9A" "xB7D6F2" "xBD8033" "xC03080" "xC03297" "xC32AF4" "xC50565" "xCAEC7A" "xD3611A" "xD78928" "xDBA81D" "xDF1965" "xE27DFB" "xE9C718" "xEED52D" "xEF029F" "xF59F44" "xF9F60A" "xFB0FA8" "xFD2B9D" "x032BE2" "x0425B3" "x0898A3" "x0AE895" "x0AF8FD" "x0E8D26" "x108000" "x108080" "x1116AA" "x1169B8" "x161979" "x1C6782" "x1FE069" "x2099C1" "x209FC3" "x25842F" "x25A37F" "x298876" "x2A2B04" "x2A91D8" "x2B1204" "x2C84C4" "x2CE673" "x2D1B0B" "x2F3B45" "x2F8F36" "x307D50" "x3117AA" "x33EE3B" "x370658" "x3F27C8" "x4160C1" "x42B7D9" "x441749" "x4AB8EE" "x4C2D30" "x500CAD" "x508000" "x519529" "x5625EF" "x56F5CB" "x577D08" "x5A4650" "x5EAA35" "x5EF8F5" "x607BA8" "x61A555" "x6B8E78" "x6CCFDB" "x6E6D40" "x6F44CB" "x76A57D" "x783D1D" "x7A5DA6" "x7B005B" "x7BCC6D" "x7E8E1A" "x864B45" "x8A35D2" "x8CC57E" "x8CFB9B" "x8D4E6D" "x8F1372" "x908000" "x908080" "x914E48" "x93A4C5" "x995E0F" "x9C28A4" "xA06435" "xA24DA3" "xA45ACA" "xA65FC5" "xAB1AA2" "xAF199E" "xB21AB9" "xB72458" "xB881EE" "xB8F452" "xBD0F03" "xBFE3A4" "xC1F518" "xC2E1AA" "xC4A8E9" "xC5390E" "xC54807" "xC78CD3" "xC9F623" "xCA5813" "xCBA1C9" "xCC07D4" "xCD0B47" "xD00000" "xD401D0" "xD507FA" "xD6A835" "xDAABF7" "xDBCBC6" "xDE208B" "xE4FC42" "xE6440D" "xE97768" "xEBF5A0" "xF16E88" "xF49BCD" "xF6B075" "xF7DB50" "xFD4509" "xFDC502" "xFE6E88" "x01D099" "x03709A" "x0A3CB6" "x0E6844" "x0F641B" "x12D3FB" "x14EE17" "x1A4988" "x27B5D7" "x2DAABF" "x421F6A" "x4271A2" "x5238CD" "x54B1CE" "x575437" "x60D0C0" "x6DA277" "x7036C3" "x7D0279" "x81A80B" "x8646F0" "x8BD05C" "x9A8A72" "x9FBBA9" "xA2A7AB" "xAF76BB" "xBB07D6" "xC699E3" "xCC0672" "xDF50C0" "xE51C65" "xE8078D" "xE9BBD3" "xF03A69" "x0011AA" "x003080" "x03FA03" "x04C43F" "x0BFD7B" "x0D5DDD" "x10C6B4" "x120FFD" "x14A53B" "x1C9D7D" "x248F66" "x262FDB" "x27A132" "x2B7E93" "x30BBDA" "x3188F7" "x37B11F" "x3A74AB" "x432FE4" "x475D1E" "x51153D" "x535D1C" "x556403" "x55FB35" "x58817E" "x5AF2D5" "x5CED99" "x6050C0" "x662FF9" "x6D572C" "x77C161" "x7CFB5F" "x803080" "x80773D" "x80B001" "x8910AF" "x8E9D4F" "x8FB2D5" "x986D98" "x9A551F" "x9BDC42" "xADD8B8" "xB009D9" "xB9D7C8" "xBE33DB" "xBF6399" "xC3C402" "xC6B997" "xC6D1E5" "xC7E9EA" "xC9BA1B" "xCA959E" "xCD9190" "xD7DEC8" "xDA4A32" "xE06B52" "xE7BA3B" "xE941BF" "xECD11D" "xF82CDC" "xF97F04" "xFE578D" "x00879A" "x00B001" "x059C97" "x08C98F" "x0DA7FA" "x0F59F0" "x1B9AEE" "x1BD480" "x1C58D1" "x1CC654" "x20360A" "x2F16DF" "x304ACD" "x3A264E" "x41A909" "x4C9B4D" "x4EE20D" "x4FF638" "x50EF80" "x54B95F" "x592CDF" "x59E37B" "x60385F" "x654D48" "x6EDB2C" "x766F08" "x7B177A" "x7F00A8" "x8030C0" "x80B080" "x883E5B" "x9486AD" "x9C099B" "x9F69AD" "xA164AB" "xA20ABD" "xA98620" "xA995BC" "xB13782" "xB65993" "xBA8759" "xBCFFF7" "xC03001" "xC1EF57" "xC202B5" "xC68684" "xCAEB7A" "xD51E89" "xD69138" "xDCEE0B" "xDDC3A9" "xDDE205" "xDEEEB0" "xE1E8AB" "xE4E032" "xE86EA3" "xE96480" "xEA81D3" "xF01B64" "xF32D13" "xF33EC5" "xF468A1" "xF53F63" "xF9A35E" "xFC72E1" "xFEC6A5" "x00B080" "x10BBF0" "x1C03D7" "x1DD207" "x27C1A1" "x2F69FF" "x403080" "x476D93" "x4F60EB" "x5B96E6" "x6AAD8E" "x6F6565" "x74AF76" "x83F6C7" "x929ECC" "x95CA42" "xB57A54" "xB7EC5C" "xC46F80" "xD374E4" "xD87641" "xE40A9D" "xE755F0" "xEA20F2" "xEC0A4D" "xF88218" "x007001" "x832AE4" "x963998" "xA4C4A6" "xC0B080" "xC6D687" "xD5299A" "xDFD0C0" "xE0E5E9" "x2214C5" "x34ABA3" "x44B0D0" "x4606C7" "x4BFB55" "x503080" "x5F1A07" "x6B4C3A" "x6FBC1A" "x70C1FF" "x71F349" "x725961" "x732A81" "x749EC2" "x75E1C3" "x9BAC78" "xC0B001" "xD03080" "xD0B080" "xD6EED0" "xE3628B" "xEC946F" "x1DB7A7" "x23EF68" "x2C4E34" "x35FEEB" "x40B001" "x47D122" "x4F7405" "x5030C0" "x51E4B6" "x54250B" "x68F271" "x69E5AF" "x8BE638" "x90AC14" "x91484C" "xA59F7B" "xA8DEBE" "xB598B9" "xCE98DE" "xCE9FD1" "xD1EC91" "xDB85B0" "xDD8B61" "xE280B2" "xE31B45" "xE3AD92" "xE68FD8" "xFEE4D4" "x0A1D52" "x0EBDEC" "x10B040" "x10B080" "x204077" "x3A857C" "x44E6F0" "x51EB34" "x5A4C5B" "x5A9469" "x5B5167" "x6BEB21" "x6EFE9A" "x903040" "xCC93D9" "xD5F2F8" "x067F2A" "x1B2176" "x1B599E" "x1C69F0" "x1CB3F9" "x253627" "x447790" "x4BF28B" "x5CE75E" "x5ED62A" "x87A6C4" "x8A6294" "x9030C0" "x9BDCE5" "xD08EE2" "xD0EF80" "xECF9FC" "xEE1E8B" "x01EFB4" "x0B94E3" "x10EF01" "x469921" "x4712FC" "x5AC30A" "x600DE6" "x8CC01A" "xA80151" "xAA660B" "xB846DD" "xDF5040" "xF28CF4" "x08E7F6" "x1616D8" "x1BC4D0" "x2113D8" "x3A8CF5" "x44D03C" "x460749" "x502C96" "x51A981" "x651EB1" "x8293A6" "x90B040" "x90B0C0" "x98D949" "xA095E4" "xA547C9" "xAF030C" "xC0C070" "xC83AE5" "xD30430" "x02AE5B" "x0EE3B3" "x107001" "x13F963" "x1559EB" "x2E172F" "x374D6F" "x3B18A7" "x3F0A44" "x41E3BB" "x4CF985" "x4E396E" "x50B000" "x50B080" "x52E09C" "x65B33C" "x6CE1F2" "x6EEA68" "x80B8A5" "x829A25" "x8ABF59" "x8EA0AB" "x8FD9A9" "x907001" "x90B080" "x97CE08" "xA18CF4" "xBFDB49" "xC1F60B" "xC3A1B7" "xCE2837" "xE26CDE" "xE34EE3" "xE5730F" "xE9BCBE" "x06468D" "x079132" "x0C6D43" "x1043A1" "x10545A" "x236BF3" "x6725CB" "x6D5F07" "x99570C" "x9AA3B4" "x9B87CC" "x9B8923" "xA00496" "xB6FB08" "xBFB49D" "xDDC184" "xE6A7AE" "xFC9EFC" "xFEBF1A" "x1030C0" "x10B0C0" "x1521F4" "x31E49A" "x4DBDE9" "x8E26C5" "xA087F6" "xA46BA0" "xA6550F" "xB70B3B" "xD03040" "xE0AADA" "xE8CFA0" "xF19260" "x0418C4" "x0D1D9D" "x11D494" "x1E47C8" "x205040" "x21AA9D" "x247143" "x249043" "x3FF655" "x567116" "x57EBCB" "x5B4ABD" "x6320AE" "x657B7B" "x7546F8" "x90DF58" "x9F7207" "xA1B232" "xB0A278" "xBC4223" "xBED6FE" "xC42EA6" "xC642C3" "xD34672" "xD4D12E" "xD5E26E" "xDD6E50" "xF8AB7F" }
    city = "x700080"
    port = "x700080"
    farm = "x44578C"
    arable_land = 0
    arable_resources = { "bg_wheat_farms" }
    capped_resources = {}
    naval_exit_id = 3067
}
